%YAML 1.1
%TAG !u! tag:unity3d.com,2011:
--- !u!74 &7400000
AnimationClip:
  m_ObjectHideFlags: 0
  m_CorrespondingSourceObject: {fileID: 0}
  m_PrefabInstance: {fileID: 0}
  m_PrefabAsset: {fileID: 0}
  m_Name: Lady_Walkcycle
  serializedVersion: 6
  m_Legacy: 0
  m_Compressed: 0
  m_UseHighQualityCurve: 1
  m_RotationCurves: []
  m_CompressedRotationCurves: []
  m_EulerCurves: []
  m_PositionCurves: []
  m_ScaleCurves: []
  m_FloatCurves: []
  m_PPtrCurves:
  - curve:
    - time: 0
      value: {fileID: 21300000, guid: a4abb8848294e43c9bf38d6dfe95735a, type: 3}
    - time: 0.083333336
      value: {fileID: 21300000, guid: 691e34328b85e4b18b56837767ecd0fe, type: 3}
    - time: 0.16666667
      value: {fileID: 21300000, guid: a429dd1c54e84412ea8d3288b72086a8, type: 3}
    - time: 0.25
      value: {fileID: 21300000, guid: 6935d7fd1435c4ed9baf146bb121dcbf, type: 3}
    - time: 0.33333334
      value: {fileID: 21300000, guid: 6c3e4892442d249df909bf96a33212fd, type: 3}
    - time: 0.41666666
      value: {fileID: 21300000, guid: 0387ac4aedb31411dbc04397bbd64ec7, type: 3}
    - time: 0.5
      value: {fileID: 21300000, guid: b4e29924d3b6140e1b72a13a78fe922b, type: 3}
    - time: 0.5833333
      value: {fileID: 21300000, guid: 369b8001e2f0d4a39852b0a24a8b2293, type: 3}
    - time: 0.6666667
      value: {fileID: 21300000, guid: 9e9e4fcbcbd3e4984ad812a3f0da6641, type: 3}
    - time: 0.75
      value: {fileID: 21300000, guid: 2a6e87dfd46c2404bb17e4a4a638f446, type: 3}
    - time: 0.8333333
      value: {fileID: 21300000, guid: 45c86b0340460474dbefd37b7487968d, type: 3}
    - time: 0.9166667
      value: {fileID: 21300000, guid: 5cdf59b00ab424a0aa96130147e05b11, type: 3}
    - time: 1
      value: {fileID: 21300000, guid: 0cb2b0ef55b974453855fc2ccbf44d8b, type: 3}
    - time: 1.0833334
      value: {fileID: 21300000, guid: 00d5212e5d0044f2dbb4f400df674b12, type: 3}
    - time: 1.1666666
      value: {fileID: 21300000, guid: 8453b90e4a92341cf9fa96cb7b118fc2, type: 3}
    - time: 1.25
      value: {fileID: 21300000, guid: 03f09521dc8474f9a861d2824272a2dd, type: 3}
    - time: 1.3333334
      value: {fileID: 21300000, guid: 708d167b1fd964f4c87c21db9fb665c6, type: 3}
    - time: 1.4166666
      value: {fileID: 21300000, guid: f890a6e9aea64423b8cd37bf68eb3eb6, type: 3}
    - time: 1.5
      value: {fileID: 21300000, guid: 969729305410548488dd12a77d027f6e, type: 3}
    - time: 1.5833334
      value: {fileID: 21300000, guid: 983284b5e43814343b98b95e8132d51f, type: 3}
    attribute: m_Sprite
    path: 
    classID: 212
    script: {fileID: 0}
  m_SampleRate: 12
  m_WrapMode: 0
  m_Bounds:
    m_Center: {x: 0, y: 0, z: 0}
    m_Extent: {x: 0, y: 0, z: 0}
  m_ClipBindingConstant:
    genericBindings:
    - serializedVersion: 2
      path: 0
      attribute: 0
      script: {fileID: 0}
      typeID: 212
      customType: 23
      isPPtrCurve: 1
    pptrCurveMapping:
    - {fileID: 21300000, guid: a4abb8848294e43c9bf38d6dfe95735a, type: 3}
    - {fileID: 21300000, guid: 691e34328b85e4b18b56837767ecd0fe, type: 3}
    - {fileID: 21300000, guid: a429dd1c54e84412ea8d3288b72086a8, type: 3}
    - {fileID: 21300000, guid: 6935d7fd1435c4ed9baf146bb121dcbf, type: 3}
    - {fileID: 21300000, guid: 6c3e4892442d249df909bf96a33212fd, type: 3}
    - {fileID: 21300000, guid: 0387ac4aedb31411dbc04397bbd64ec7, type: 3}
    - {fileID: 21300000, guid: b4e29924d3b6140e1b72a13a78fe922b, type: 3}
    - {fileID: 21300000, guid: 369b8001e2f0d4a39852b0a24a8b2293, type: 3}
    - {fileID: 21300000, guid: 9e9e4fcbcbd3e4984ad812a3f0da6641, type: 3}
    - {fileID: 21300000, guid: 2a6e87dfd46c2404bb17e4a4a638f446, type: 3}
    - {fileID: 21300000, guid: 45c86b0340460474dbefd37b7487968d, type: 3}
    - {fileID: 21300000, guid: 5cdf59b00ab424a0aa96130147e05b11, type: 3}
    - {fileID: 21300000, guid: 0cb2b0ef55b974453855fc2ccbf44d8b, type: 3}
    - {fileID: 21300000, guid: 00d5212e5d0044f2dbb4f400df674b12, type: 3}
    - {fileID: 21300000, guid: 8453b90e4a92341cf9fa96cb7b118fc2, type: 3}
    - {fileID: 21300000, guid: 03f09521dc8474f9a861d2824272a2dd, type: 3}
    - {fileID: 21300000, guid: 708d167b1fd964f4c87c21db9fb665c6, type: 3}
    - {fileID: 21300000, guid: f890a6e9aea64423b8cd37bf68eb3eb6, type: 3}
    - {fileID: 21300000, guid: 969729305410548488dd12a77d027f6e, type: 3}
    - {fileID: 21300000, guid: 983284b5e43814343b98b95e8132d51f, type: 3}
  m_AnimationClipSettings:
    serializedVersion: 2
    m_AdditiveReferencePoseClip: {fileID: 0}
    m_AdditiveReferencePoseTime: 0
    m_StartTime: 0
    m_StopTime: 1.6666667
    m_OrientationOffsetY: 0
    m_Level: 0
    m_CycleOffset: 0
    m_HasAdditiveReferencePose: 0
    m_LoopTime: 1
    m_LoopBlend: 0
    m_LoopBlendOrientation: 0
    m_LoopBlendPositionY: 0
    m_LoopBlendPositionXZ: 0
    m_KeepOriginalOrientation: 0
    m_KeepOriginalPositionY: 1
    m_KeepOriginalPositionXZ: 0
    m_HeightFromFeet: 0
    m_Mirror: 0
  m_EditorCurves: []
  m_EulerEditorCurves: []
  m_HasGenericRootTransform: 0
  m_HasMotionFloatCurves: 0
  m_Events: []
