%YAML 1.1
%TAG !u! tag:unity3d.com,2011:
--- !u!114 &11400000
MonoBehaviour:
  m_ObjectHideFlags: 0
  m_CorrespondingSourceObject: {fileID: 0}
  m_PrefabInstance: {fileID: 0}
  m_PrefabAsset: {fileID: 0}
  m_GameObject: {fileID: 0}
  m_Enabled: 1
  m_EditorHideFlags: 0
  m_Script: {fileID: 11500000, guid: 18ef740f35b77464281a853c60d184b8, type: 3}
  m_Name: Song01
  m_EditorClassIdentifier: 
  notes:
  - note: 0
    time: 0
  - note: 1
    time: 1
  - note: 1
    time: 1
  - note: 0
    time: 2
  - note: 0
    time: 3
  - note: 0
    time: 4
