%YAML 1.1
%TAG !u! tag:unity3d.com,2011:
--- !u!74 &7400000
AnimationClip:
  m_ObjectHideFlags: 0
  m_CorrespondingSourceObject: {fileID: 0}
  m_PrefabInstance: {fileID: 0}
  m_PrefabAsset: {fileID: 0}
  m_Name: Girl_Walkcycle
  serializedVersion: 6
  m_Legacy: 0
  m_Compressed: 0
  m_UseHighQualityCurve: 1
  m_RotationCurves: []
  m_CompressedRotationCurves: []
  m_EulerCurves: []
  m_PositionCurves: []
  m_ScaleCurves: []
  m_FloatCurves: []
  m_PPtrCurves:
  - curve:
    - time: 0
      value: {fileID: 21300000, guid: fe6163cf61b0b46d5911a48929c9c237, type: 3}
    - time: 0.083333336
      value: {fileID: 21300000, guid: e53e16cfbeb4744f28f72ee0c26af7dd, type: 3}
    - time: 0.16666667
      value: {fileID: 21300000, guid: 4e6300cec3b8b40d7894b5e8b2a80d98, type: 3}
    - time: 0.25
      value: {fileID: 21300000, guid: a7f0793fc286643e7a034d26f1e3f653, type: 3}
    - time: 0.33333334
      value: {fileID: 21300000, guid: 5e8ed7004de0f43989b17ad265f70f5a, type: 3}
    - time: 0.41666666
      value: {fileID: 21300000, guid: 3d0f2990809ab4e10acad452a61fcf71, type: 3}
    - time: 0.5
      value: {fileID: 21300000, guid: 8c0d7a1a008a54acd9c0e1433292cd01, type: 3}
    - time: 0.5833333
      value: {fileID: 21300000, guid: 35b78f1c92bb54b778b9916c09f8762c, type: 3}
    - time: 0.6666667
      value: {fileID: 21300000, guid: de4823eac4c7c4be9bc64168c72d9d84, type: 3}
    - time: 0.75
      value: {fileID: 21300000, guid: f06faa9a9fda840eab8c48033d58f830, type: 3}
    - time: 0.8333333
      value: {fileID: 21300000, guid: 412bfa1bf538745289faa586ee338467, type: 3}
    - time: 0.9166667
      value: {fileID: 21300000, guid: 70c8a49bdcd104dafbc87f5c72313e8a, type: 3}
    - time: 1
      value: {fileID: 21300000, guid: 52c14138f94774aaeb4cdb5b4c8919c4, type: 3}
    - time: 1.0833334
      value: {fileID: 21300000, guid: bfc61a941960a4964b915bfe9ad3ced0, type: 3}
    - time: 1.1666666
      value: {fileID: 21300000, guid: ad85ad413deb64743b766bdc1809ab90, type: 3}
    - time: 1.25
      value: {fileID: 21300000, guid: 914957228085140148ebf4908dea57c1, type: 3}
    - time: 1.3333334
      value: {fileID: 21300000, guid: fe540402ab2274b49be1696434724bc6, type: 3}
    - time: 1.4166666
      value: {fileID: 21300000, guid: e7236837ff8bc428eae21eb9c65a1302, type: 3}
    - time: 1.5
      value: {fileID: 21300000, guid: aed216ebf3c284874aad6032c2756c05, type: 3}
    - time: 1.5833334
      value: {fileID: 21300000, guid: 91b22595a2d034b61bf0820af2d232ea, type: 3}
    attribute: m_Sprite
    path: 
    classID: 212
    script: {fileID: 0}
  m_SampleRate: 12
  m_WrapMode: 0
  m_Bounds:
    m_Center: {x: 0, y: 0, z: 0}
    m_Extent: {x: 0, y: 0, z: 0}
  m_ClipBindingConstant:
    genericBindings:
    - serializedVersion: 2
      path: 0
      attribute: 0
      script: {fileID: 0}
      typeID: 212
      customType: 23
      isPPtrCurve: 1
    pptrCurveMapping:
    - {fileID: 21300000, guid: fe6163cf61b0b46d5911a48929c9c237, type: 3}
    - {fileID: 21300000, guid: e53e16cfbeb4744f28f72ee0c26af7dd, type: 3}
    - {fileID: 21300000, guid: 4e6300cec3b8b40d7894b5e8b2a80d98, type: 3}
    - {fileID: 21300000, guid: a7f0793fc286643e7a034d26f1e3f653, type: 3}
    - {fileID: 21300000, guid: 5e8ed7004de0f43989b17ad265f70f5a, type: 3}
    - {fileID: 21300000, guid: 3d0f2990809ab4e10acad452a61fcf71, type: 3}
    - {fileID: 21300000, guid: 8c0d7a1a008a54acd9c0e1433292cd01, type: 3}
    - {fileID: 21300000, guid: 35b78f1c92bb54b778b9916c09f8762c, type: 3}
    - {fileID: 21300000, guid: de4823eac4c7c4be9bc64168c72d9d84, type: 3}
    - {fileID: 21300000, guid: f06faa9a9fda840eab8c48033d58f830, type: 3}
    - {fileID: 21300000, guid: 412bfa1bf538745289faa586ee338467, type: 3}
    - {fileID: 21300000, guid: 70c8a49bdcd104dafbc87f5c72313e8a, type: 3}
    - {fileID: 21300000, guid: 52c14138f94774aaeb4cdb5b4c8919c4, type: 3}
    - {fileID: 21300000, guid: bfc61a941960a4964b915bfe9ad3ced0, type: 3}
    - {fileID: 21300000, guid: ad85ad413deb64743b766bdc1809ab90, type: 3}
    - {fileID: 21300000, guid: 914957228085140148ebf4908dea57c1, type: 3}
    - {fileID: 21300000, guid: fe540402ab2274b49be1696434724bc6, type: 3}
    - {fileID: 21300000, guid: e7236837ff8bc428eae21eb9c65a1302, type: 3}
    - {fileID: 21300000, guid: aed216ebf3c284874aad6032c2756c05, type: 3}
    - {fileID: 21300000, guid: 91b22595a2d034b61bf0820af2d232ea, type: 3}
  m_AnimationClipSettings:
    serializedVersion: 2
    m_AdditiveReferencePoseClip: {fileID: 0}
    m_AdditiveReferencePoseTime: 0
    m_StartTime: 0
    m_StopTime: 1.6666667
    m_OrientationOffsetY: 0
    m_Level: 0
    m_CycleOffset: 0
    m_HasAdditiveReferencePose: 0
    m_LoopTime: 1
    m_LoopBlend: 0
    m_LoopBlendOrientation: 0
    m_LoopBlendPositionY: 0
    m_LoopBlendPositionXZ: 0
    m_KeepOriginalOrientation: 0
    m_KeepOriginalPositionY: 1
    m_KeepOriginalPositionXZ: 0
    m_HeightFromFeet: 0
    m_Mirror: 0
  m_EditorCurves: []
  m_EulerEditorCurves: []
  m_HasGenericRootTransform: 0
  m_HasMotionFloatCurves: 0
  m_Events: []
