# WaveFront *.obj file (generated by CINEMA 4D)

mtllib ./Huis-13.mtl

v 209.15657043457031 -151.64970397949219 -229.24595642089844
v 209.15657043457031 -47.44970321655273 -229.24595642089844
v 283.233642578125 -151.64970397949219 -229.24595642089844
v 283.233642578125 -47.44970321655273 -229.24595642089844
v 283.233642578125 -151.64970397949219 -310.60003662109375
v 283.233642578125 -47.44970321655273 -310.60003662109375
v 209.15657043457031 -151.64970397949219 -310.60003662109375
v 209.15657043457031 -47.44970321655273 -310.60003662109375
v 283.233642578125 -25.41614723205566 -246.36599731445312
v 209.15657043457031 -25.41614723205566 -244.92904663085938
v 209.15657043457031 -25.41614723205566 -293.09841918945312
v 283.233642578125 -25.41614723205566 -293.73220825195312
v 283.233642578125 -17.4909496307373 -271.5489501953125
v 209.15657043457031 -17.4909496307373 -270.28134155273438
v 209.15657043457031 -151.64970397949219 -35.20376968383789
v 209.15657043457031 -47.44970321655273 -35.20376968383789
v 283.233642578125 -151.64970397949219 -35.20376968383789
v 283.233642578125 -47.44970321655273 -35.20376968383789
v 283.233642578125 -151.64970397949219 -116.55785369873047
v 283.233642578125 -47.44970321655273 -116.55785369873047
v 209.15657043457031 -151.64970397949219 -116.55785369873047
v 209.15657043457031 -47.44970321655273 -116.55785369873047
v 283.233642578125 -25.41614723205566 -52.32380676269531
v 209.15657043457031 -25.41614723205566 -50.88685607910156
v 209.15657043457031 -25.41614723205566 -99.05621337890625
v 283.233642578125 -25.41614723205566 -99.69002532958984
v 283.233642578125 -17.4909496307373 -77.50676727294922
v 209.15657043457031 -17.4909496307373 -76.23915100097656
v 209.15657043457031 -151.64970397949219 128.98713684082031
v 209.15657043457031 -47.44970321655273 128.98713684082031
v 283.233642578125 -151.64970397949219 128.98713684082031
v 283.233642578125 -47.44970321655273 128.98713684082031
v 283.233642578125 -151.64970397949219 47.63305282592773
v 283.233642578125 -47.44970321655273 47.63305282592773
v 209.15657043457031 -151.64970397949219 47.63305282592773
v 209.15657043457031 -47.44970321655273 47.63305282592773
v 283.233642578125 -25.41614723205566 111.86709594726562
v 209.15657043457031 -25.41614723205566 113.30405426025391
v 209.15657043457031 -25.41614723205566 65.13468933105469
v 283.233642578125 -25.41614723205566 64.50088500976562
v 283.233642578125 -17.4909496307373 86.68414306640625
v 209.15657043457031 -17.4909496307373 87.95175933837891
v 209.15657043457031 -151.64970397949219 298.7156982421875
v 209.15657043457031 -47.44970321655273 298.7156982421875
v 283.233642578125 -151.64970397949219 298.7156982421875
v 283.233642578125 -47.44970321655273 298.7156982421875
v 283.233642578125 -151.64970397949219 217.36160278320312
v 283.233642578125 -47.44970321655273 217.36160278320312
v 209.15657043457031 -151.64970397949219 217.36160278320312
v 209.15657043457031 -47.44970321655273 217.36160278320312
v 283.233642578125 -25.41614723205566 281.59564208984375
v 209.15657043457031 -25.41614723205566 283.0325927734375
v 209.15657043457031 -25.41614723205566 234.86325073242188
v 283.233642578125 -25.41614723205566 234.22943115234375
v 283.233642578125 -17.4909496307373 256.41268920898438
v 209.15657043457031 -17.4909496307373 257.6802978515625
v -265.49786376953125 9.81148815155029 405.40625
v 241.23841857910156 9.81148815155029 405.40625
v 241.23841857910156 9.81148815155029 -405.1075439453125
v -265.49786376953125 9.81148815155029 -405.1075439453125
v 151.10989379882812 102.08982086181641 -405.1075439453125
v 151.10989379882812 102.08982086181641 405.40625
v -121.52292633056641 102.08982086181641 -405.1075439453125
v -121.52292633056641 102.08982086181641 405.40625
v 241.23841857910156 9.81148815155029 367.13589477539062
v -265.49786376953125 9.81148815155029 367.13589477539062
v -121.52292633056641 102.08982086181641 367.13589477539062
v 151.10989379882812 102.08982086181641 367.13589477539062
v 241.23841857910156 9.81148815155029 -358.30294799804688
v -265.49786376953125 9.81148815155029 -358.30294799804688
v -121.52292633056641 102.08982086181641 -358.30294799804688
v 151.10989379882812 102.08982086181641 -358.30294799804688
v 241.23841857910156 9.81148815155029 -193.57186889648438
v 151.10989379882812 102.08982086181641 -193.57186889648438
v -121.52292633056641 102.08982086181641 -193.57186889648438
v -265.49786376953125 9.81148815155029 -193.57186889648438
v 241.23841857910156 -189.38497924804688 -405.1075439453125
v 241.23841857910156 -189.38497924804688 -358.30294799804688
v 241.23841857910156 -189.38497924804688 -193.57186889648438
v 241.23841857910156 -189.38497924804688 367.13589477539062
v 241.23841857910156 -189.38497924804688 405.40625
v 136.82940673828125 -133.18681335449219 405.40625
v -113.70307159423828 -133.18681335449219 405.40625
v -265.49786376953125 -189.38497924804688 405.40625
v -265.49786376953125 -189.38497924804688 367.13589477539062
v -265.49786376953125 -189.38497924804688 -193.57186889648438
v -265.49786376953125 -189.38497924804688 -358.30294799804688
v -265.49786376953125 -189.38497924804688 -405.1075439453125
v -113.70307159423828 -133.18681335449219 -405.1075439453125
v 136.82940673828125 -133.18681335449219 -405.1075439453125
v 133.17160034179688 -193.45057678222656 405.40625
v -111.70008850097656 -193.45057678222656 405.40625
v -111.70008850097656 -193.45057678222656 -405.1075439453125
v 133.17160034179688 -193.45057678222656 -405.1075439453125
v 263.43170166015625 -189.38497924804688 -358.30294799804688
v 263.43170166015625 -189.38497924804688 -193.57186889648438
v 263.43170166015625 -189.38497924804688 367.13589477539062
v 151.10989379882812 102.08982086181641 233.86732482910156
v 241.23841857910156 9.81148815155029 231.79293823242188
v 241.23841857910156 9.81148815155029 233.31402587890625
v 241.23841857910156 9.81148815155029 161.39199829101562
v 151.10989379882812 102.08982086181641 161.39199829101562
v 241.23841857910156 9.81148815155029 11.2187967300415
v 151.10989379882812 102.08982086181641 11.2187967300415
v 151.10989379882812 102.08982086181641 -57.25097274780273
v 241.23841857910156 9.81148815155029 -57.25097274780273
v 216.22344970703125 35.07992172241211 233.46759033203125
v 215.22433471679688 35.07992172241211 161.39199829101562
v 214.81990051269531 35.07992172241211 11.2187967300415
v 214.83773803710938 35.07992172241211 -57.25097274780273
v 151.10989379882812 102.26640319824219 233.86732482910156
v 151.10989379882812 102.26640319824219 161.39199829101562
v 216.22344970703125 82.57154846191406 233.46759033203125
v 215.22433471679688 82.57154846191406 161.39199829101562
v 151.10989379882812 102.26640319824219 11.2187967300415
v 151.10989379882812 102.26640319824219 -57.25097274780273
v 214.81990051269531 82.57154846191406 11.2187967300415
v 214.83773803710938 82.57154846191406 -57.25097274780273
v 214.82861328125 107.58912658691406 -22.19865226745605
v 151.10989379882812 102.08982086181641 -22.03251838684082
v 151.10989379882812 102.26640319824219 -22.03251838684082
v 215.75785827636719 35.07992172241211 199.87995910644531
v 151.10989379882812 102.26640319824219 200.35714721679688
v 151.10989379882812 102.08982086181641 200.35714721679688
v 215.75785827636719 107.58912658691406 199.87995910644531
v 241.23841857910156 -189.38497924804688 -221.30441284179688
v 151.10989379882812 102.08982086181641 -220.6302490234375
v 241.23841857910156 9.81148815155029 -221.30441284179688
v 151.10989379882812 102.08982086181641 -276.58590698242188
v 241.23841857910156 9.81148815155029 -276.9229736328125
v 188.654541015625 63.64963531494141 -276.726318359375
v 188.30581665039062 64.00667572021484 -220.90847778320312
v 151.10989379882812 180.07406616210938 -220.6302490234375
v 151.10989379882812 180.07406616210938 -276.58590698242188
v 188.654541015625 173.01945495605469 -276.726318359375
v 188.30581665039062 173.37649536132812 -220.90847778320312
v 161.92320251464844 178.05584716796875 -231.71138000488281
v 161.93344116210938 178.11148071289062 -265.62640380859375
v 177.76164245605469 175.05221557617188 -265.68545532226562
v 177.5604248046875 175.32481384277344 -231.82844543457031
v 174.59820556640625 227.16157531738281 -239.39909362792969
v 174.615478515625 227.25547790527344 -258.25357055664062
v 183.40324401855469 225.49177551269531 -258.28622436523438
v 183.30296325683594 225.706298828125 -239.46434020996094
v 258.97418212890625 24.41295623779297 -406.7457275390625
v -283.233642578125 24.41295623779297 -406.7457275390625
v 162.53666687011719 123.15077209472656 -406.7457275390625
v -129.18045043945312 123.15077209472656 -406.7457275390625
v 258.97418212890625 24.41295623779297 -356.664794921875
v -283.233642578125 24.41295623779297 -356.664794921875
v -129.18045043945312 123.15077209472656 -356.664794921875
v 162.53666687011719 123.15077209472656 -356.664794921875
v 258.97418212890625 -188.72726440429688 -406.7457275390625
v 258.97418212890625 -188.72726440429688 -356.664794921875
v -283.233642578125 -188.72726440429688 -356.664794921875
v -283.233642578125 -188.72726440429688 -406.7457275390625
v -283.233642578125 24.41295623779297 406.7457275390625
v 258.97418212890625 24.41295623779297 406.7457275390625
v 162.53666687011719 123.15077209472656 406.7457275390625
v -129.18045043945312 123.15077209472656 406.7457275390625
v 258.97418212890625 24.41295623779297 365.79644775390625
v -283.233642578125 24.41295623779297 365.79644775390625
v -129.18045043945312 123.15077209472656 365.79644775390625
v 162.53666687011719 123.15077209472656 365.79644775390625
v 258.97418212890625 -188.72726440429688 365.79644775390625
v 258.97418212890625 -188.72726440429688 406.7457275390625
v -283.233642578125 -188.72726440429688 406.7457275390625
v -283.233642578125 -188.72726440429688 365.79644775390625
v 263.43170166015625 -227.25547790527344 -165.12249755859375
v 263.43170166015625 -227.25547790527344 -193.57186889648438
v 263.43170166015625 -227.25547790527344 13.90569305419922
v 263.43170166015625 -227.25547790527344 165.59429931640625
v 263.43170166015625 -227.25547790527344 347.96170043945312
v 263.43170166015625 -227.25547790527344 367.13589477539062
v 263.43170166015625 -227.25547790527344 -337.08355712890625
v 263.43170166015625 -227.25547790527344 -358.30294799804688
v 258.97418212890625 -227.25547790527344 -406.7457275390625
v 258.97418212890625 -227.25547790527344 -356.664794921875
v 258.97418212890625 -227.25547790527344 365.79644775390625
v 258.97418212890625 -227.25547790527344 406.7457275390625
v 210.97090148925781 -227.25547790527344 405.40625
v 241.23841857910156 -227.25547790527344 405.40625
v -222.42193603515625 -227.25547790527344 405.40625
v -265.49786376953125 -227.25547790527344 405.40625
v -283.233642578125 -227.25547790527344 406.7457275390625
v -283.233642578125 -227.25547790527344 365.79644775390625
v -265.49786376953125 -227.25547790527344 367.13589477539062
v -265.49786376953125 -227.25547790527344 -193.57186889648438
v -265.49786376953125 -227.25547790527344 -358.30294799804688
v -283.233642578125 -227.25547790527344 -356.664794921875
v -283.233642578125 -227.25547790527344 -406.7457275390625
v -265.49786376953125 -227.25547790527344 -405.1075439453125
v -222.42193603515625 -227.25547790527344 -405.1075439453125
v 210.97090148925781 -227.25547790527344 -405.1075439453125
v 241.23841857910156 -227.25547790527344 -405.1075439453125
v 131.11976623535156 -227.25547790527344 405.40625
v -110.57652282714844 -227.25547790527344 405.40625
v -110.57652282714844 -227.25547790527344 -405.1075439453125
v 131.11976623535156 -227.25547790527344 -405.1075439453125
v 241.23841857910156 -227.25547790527344 367.13589477539062
v 241.23841857910156 -227.25547790527344 -358.30294799804688
v 258.97418212890625 -227.25547790527344 367.13589477539062
v 258.97418212890625 -227.25547790527344 -358.30294799804688
# 203 vertices

vn 0 0 1
vn 0.00416243681684 0.31435716152191 0.94929563999176
vn 1 0 0
vn 0 0 0
vn 0 0 -1
vn -0.00179602671415 0.32514023780823 -0.94566410779953
vn -1 0 0
vn 0.00702628586441 0.81526452302933 0.57904613018036
vn 0 -1 0
vn -0.00400075642392 0.81177842617035 -0.58395183086395
vn 0.00062296161195 0.99984860420227 -0.01738936640322
vn 0.0041624372825 0.31435710191727 0.9492956995964
vn -0.0017960916739 0.32514032721519 -0.94566404819489
vn 0.00702629378065 0.81526446342468 0.57904613018036
vn -0.0040008565411 0.81177848577499 -0.58395177125931
vn 0.00062293314841 0.99984860420227 -0.01738941296935
vn 0.00416246196255 0.31435710191727 0.9492956995964
vn -0.00179606978782 0.32514035701752 -0.94566404819489
vn 0.00702632684261 0.81526446342468 0.57904613018036
vn -0.00400082580745 0.81177848577499 -0.58395177125931
vn 0.00062295107637 0.99984860420227 -0.01738936640322
vn 0.00416243635118 0.31435737013817 0.94929558038712
vn -0.00179611332715 0.32514038681984 -0.94566404819489
vn 0.00702628400177 0.81526464223862 0.57904589176178
vn -0.00400087796152 0.81177848577499 -0.58395177125931
vn 0.00062292482471 0.99984860420227 -0.01738945953548
vn 0.70548766851425 0.70870542526245 -0.0048762569204
vn 0.70613896846771 0.70806968212128 -0.00224464130588
vn 0.69722408056259 0.71684747934341 -0.00287996674888
vn 0.7121759057045 0.70199072360992 -0.00381710520014
vn 0.71277618408203 0.70138114690781 -0.00381712266244
vn 0 1 0
vn -0.13908845186234 0.99027997255325 0
vn -0.11076009273529 0.99384719133377 0
vn 1 0 0
vn 0.71539092063904 0.69872444868088 0
vn 0.71440887451172 0.69972515106201 -0.00217604520731
vn 0.7171818614006 0.69688600301743 0
vn 0.69265395402908 0.72126990556717 -0.00042035846855
vn 0.70313191413879 0.71105915307999 -0.00060468504671
vn 0.72363603115082 0.69018113613129 -0.00097294920124
vn 0.70105838775635 0.71310222148895 0.00153547467198
vn 0.72001904249191 0.69393956661224 0.00451554264873
vn 0.71693879365921 0.69713449478149 0.00150519167073
vn 0.70906406641006 0.70514249801636 0.00150541914627
vn 0.69138467311859 0.72248685359955 0.00004501741932
vn 0.99999994039536 -0.00000002400543 0.0002605713089
vn 0.99999994039536 -0.00000004801086 0.00026041746605
vn 0.99999994039536 0 0.00026072512264
vn 0.99990391731262 0 -0.013860758394
vn 0.99990391731262 0 -0.01386070903391
vn 0.99990391731262 0 -0.01386065967381
vn -0.18654294312 0.98244678974152 0
vn 0.71539086103439 0.69872450828552 0
vn 0.71539086103439 0.69872444868088 -0.0000000058004
vn 0.71539092063904 0.69872444868088 0.00000000581984
vn 0.71539092063904 0.69872444868088 -0.0000000116008
vn 0.71539092063904 0.69872444868088 0.00000000872976
vn 0.71539092063904 0.69872444868088 0
vn 0.71539092063904 0.69872444868088 0.00000000968678
vn 0.71539092063904 0.69872444868088 0.00000001453016
vn -0.01045336201787 -0.02608629688621 0.99960505962372
vn -0.03905934840441 -0.01361480075866 0.99914413690567
vn -0.03768157586455 0 0.9992898106575
vn -0.04603610932827 0 -0.99893975257874
vn -0.04772771149874 -0.01664227992296 -0.99872171878815
vn -0.01277706585824 -0.03188212960958 -0.99940997362137
vn 0.01008756458759 -0.03514125943184 -0.99933141469955
vn 0.00825370289385 -0.02875391021371 0.99955242872238
vn -0.28114545345306 0.95966517925262 0
vn 0.04414850845933 -0.02099286392331 -0.99880439043045
vn 0.04603607207537 0 -0.99893975257874
vn 0.03768154233694 0 0.9992898106575
vn 0.03613019362092 -0.01717440038919 0.99919950962067
vn -0.53961098194122 0.84191447496414 0
vn -0.53961098194122 0.84191447496414 0
vn 0.71539092063904 0.69872438907623 0
vn -0.53961098194122 0.84191447496414 0
vn -0.0251190662384 0 0.99968445301056
vn 0.02511904202402 0 0.99968445301056
vn 0.03068709373474 0 -0.99952906370163
vn -0.03068711981177 0 -0.99952906370163
vn 0.12324548512697 0.93929624557495 0.3202078640461
vn 0.12844203412533 0.9917004108429 0.00573940016329
vn 0.00613895477727 0 0.99998116493225
vn 0.12058068066835 0.9432846903801 -0.30931255221367
vn 0.12196708470583 0.93981647491455 0.31916934251785
vn 0.12542666494846 0.99196660518646 0.01644442975521
vn 0.11704923957586 0.95050090551376 -0.28783240914345
vn 0.18085764348507 0.98350602388382 -0.00253183208406
vn 0.00747987860814 0 0.9999720454216
vn -0.00373982475139 0 -0.99999302625656
vn 0.99998050928116 0 0.00624742079526
vn 0.17816391587257 0.98398488759994 -0.00559957465157
vn 0.17736028134823 0.98414355516434 -0.00218467111699
vn 0.18367449939251 0.98298704624176 0.00044796781731
vn 0.18447881937027 0.9828320145607 -0.00296694552526
vn 0.03241446614265 0.14632353186607 0.98870557546616
vn -0.96827614307404 0.24988253414631 0.00023742078338
vn 0.02435533702374 0.1423399746418 -0.98951816558838
vn 0.99366307258606 -0.1122006252408 0.00669100973755
vn -0.07155822217464 -0.02495179325342 -0.99712425470352
vn -0.09197459369898 0 -0.99576133489609
vn -0.09197290986776 0 0.99576151371002
vn -0.07155690342188 -0.02495133318007 0.99712437391281
vn 0.09197452664375 0 -0.99576133489609
vn 0.06620144844055 -0.03147916123271 -0.99730962514877
vn 0.06620023399591 -0.03147858008742 0.99730968475342
vn 0.09197282791138 0 0.99576151371002
vn 0.02016395702958 -0.07024360448122 -0.99732607603073
vn 0.0201635863632 -0.0702423080802 0.99732613563538
vn -0.02554443478584 -0.06374006718397 -0.9976395368576
vn -0.02554396353662 -0.06373888999224 0.99763965606689
vn -0.09197291731834 0 0.99576151371002
vn -0.0753096267581 0 0.99716019630432
vn -0.05857075750828 -0.02041583321989 0.99807447195053
vn -0.05856943503022 -0.02041536569595 -0.99807459115982
vn -0.07530792057514 0 -0.99716031551361
vn 0.05418362095952 -0.02575605362654 0.99819874763489
vn 0.07530955225229 0 0.99716019630432
vn 0.07530830800533 0 -0.99716031551361
vn 0.05418239161372 -0.02575547061861 -0.99819886684418
vn -0.02090141922235 -0.0521593503654 0.99842000007629
vn -0.02090093865991 -0.0521581582725 -0.99842011928558
vn 0.01650128886104 -0.05748650804162 0.99820989370346
vn 0.01650091260672 -0.05748520791531 -0.99821001291275
vn -0.07530791312456 0 -0.99716031551361
vn -0.07530963420868 0 0.99716019630432
vn 0.07530875504017 0 -0.99716025590897
# 129 normals

vt 0.87125927209854 0.33070540428162 0
vt 0.87125927209854 0.39565122127533 0
vt 0.91743010282516 0.39565122127533 0
vt 0.91743010282516 0.33070540428162 0
vt 0.86672365665436 0.42657220363617 0
vt 0.86672365665436 0.49151813983917 0
vt 0.87739419937134 0.50525116920471 0
vt 0.87048447132111 0.47444713115692 0
vt 0.93461793661118 0.53725790977478 0
vt 0.93461793661118 0.60220378637314 0
vt 0.9807887673378 0.60220378637314 0
vt 0.9807887673378 0.53725790977478 0
vt 0.83306962251663 0.14426255226135 0
vt 0.84397804737091 0.2229415178299 0
vt 0.85819953680038 0.22788119316101 0
vt 0.88082665205002 0.1921374797821 0
vt 0.87125927209854 0.40938436985016 0
vt 0.91743010282516 0.40938436985016 0
vt 0.82510739564896 0.01246440410614 0
vt 0.82510739564896 0.06317090988159 0
vt 0.87127822637558 0.06317090988159 0
vt 0.87127822637558 0.01246440410614 0
vt 0.90691667795181 0.50525116920471 0
vt 0.91743010282516 0.49151813983917 0
vt 0.91743010282516 0.42657220363617 0
vt 0.8709037899971 0.47382390499115 0
vt 0.9807887673378 0.61593687534332 0
vt 0.93461793661118 0.61593687534332 0
vt 0.83306962251663 0.20920848846436 0
vt 0.88070523738861 0.1921374797821 0
vt 0.11812341213226 0.02518558502197 0
vt 0.11812341213226 0.0094895362854 0
vt 0.07195258885622 0.00859391689301 0
vt 0.07195258885622 0.02439558506012 0
vt 0.87400108575821 0.2229415178299 0
vt 0.88377606868744 0.20920848846436 0
vt 0.88377606868744 0.14426255226135 0
vt 0.88114100694656 0.19151425361633 0
vt 0.89309030771256 0.51019078493118 0
vt 0.07195258885622 0.03861701488495 0
vt 0.11812341213226 0.03901207447052 0
vt 0.87125927209854 0.72899150848389 0
vt 0.87125927209854 0.79393738508224 0
vt 0.91743010282516 0.79393738508224 0
vt 0.91743010282516 0.72899150848389 0
vt 0.28544545173645 0.5713917016983 0
vt 0.28544545173645 0.63633751869202 0
vt 0.29611602425575 0.65007066726685 0
vt 0.28920629620552 0.61926662921906 0
vt 0.93461793661118 0.72899150848389 0
vt 0.93461793661118 0.79393738508224 0
vt 0.9807887673378 0.79393738508224 0
vt 0.9807887673378 0.72899150848389 0
vt 0.35333973169327 0.67219811677933 0
vt 0.36424818634987 0.75087708234787 0
vt 0.3784696161747 0.75581669807434 0
vt 0.40109676122665 0.72007304430008 0
vt 0.87125927209854 0.80767047405243 0
vt 0.91743010282516 0.80767047405243 0
vt 0.87125927209854 0.26281106472015 0
vt 0.87125927209854 0.31351757049561 0
vt 0.91743010282516 0.31351757049561 0
vt 0.91743010282516 0.26281106472015 0
vt 0.32563850283623 0.65007066726685 0
vt 0.33615189790726 0.63633751869202 0
vt 0.33615189790726 0.5713917016983 0
vt 0.28962558507919 0.61864334344864 0
vt 0.9807887673378 0.80767047405243 0
vt 0.93461793661118 0.80767047405243 0
vt 0.35333973169327 0.73714399337769 0
vt 0.40097537636757 0.72007304430008 0
vt 0.1814820766449 0.02518558502197 0
vt 0.1814820766449 0.0094895362854 0
vt 0.13531126081944 0.00859391689301 0
vt 0.13531126081944 0.02439558506012 0
vt 0.39427122473717 0.75087708234787 0
vt 0.40404617786407 0.73714399337769 0
vt 0.40404617786407 0.67219811677933 0
vt 0.40141114592552 0.71944975852966 0
vt 0.31181210279465 0.65501028299332 0
vt 0.13531126081944 0.03861701488495 0
vt 0.1814820766449 0.03901207447052 0
vt 0.93461793661118 0.63312470912933 0
vt 0.93461793661118 0.69807058572769 0
vt 0.9807887673378 0.69807058572769 0
vt 0.9807887673378 0.63312470912933 0
vt 0.86672365665436 0.62818509340286 0
vt 0.86672365665436 0.69313097000122 0
vt 0.87739419937134 0.7068640589714 0
vt 0.87048447132111 0.67606002092361 0
vt 0.87125927209854 0.82485830783844 0
vt 0.87125927209854 0.8898041844368 0
vt 0.91743010282516 0.8898041844368 0
vt 0.91743010282516 0.82485830783844 0
vt 0.86672365665436 0.52737861871719 0
vt 0.87763208150864 0.60605758428574 0
vt 0.89185351133347 0.61099725961685 0
vt 0.9144806265831 0.57525360584259 0
vt 0.93461793661118 0.71180367469788 0
vt 0.9807887673378 0.71180367469788 0
vt 0.87125927209854 0.92072510719299 0
vt 0.87125927209854 0.97143161296844 0
vt 0.91743010282516 0.97143161296844 0
vt 0.91743010282516 0.92072510719299 0
vt 0.90691667795181 0.7068640589714 0
vt 0.91743010282516 0.69313097000122 0
vt 0.91743010282516 0.62818509340286 0
vt 0.8709037899971 0.6754367351532 0
vt 0.91743010282516 0.90353727340698 0
vt 0.87125927209854 0.90353727340698 0
vt 0.86672365665436 0.59232449531555 0
vt 0.91435927152634 0.57525360584259 0
vt 0.05476474389434 0.02518558502197 0
vt 0.05476474389434 0.0094895362854 0
vt 0.00859392248094 0.00859391689301 0
vt 0.00859392248094 0.02439558506012 0
vt 0.90765511989594 0.60605758428574 0
vt 0.91743010282516 0.59232449531555 0
vt 0.91743010282516 0.52737861871719 0
vt 0.91479504108429 0.57463032007217 0
vt 0.89309030771256 0.71180367469788 0
vt 0.00859392248094 0.03861701488495 0
vt 0.05476474389434 0.03901207447052 0
vt 0.93461793661118 0.82485830783844 0
vt 0.93461793661118 0.8898041844368 0
vt 0.9807887673378 0.8898041844368 0
vt 0.9807887673378 0.82485830783844 0
vt 0.28544545173645 0.67219811677933 0
vt 0.28544545173645 0.73714399337769 0
vt 0.29611602425575 0.75087708234787 0
vt 0.28920629620552 0.72007304430008 0
vt 0.93461793661118 0.44139111042023 0
vt 0.93461793661118 0.50633692741394 0
vt 0.9807887673378 0.50633692741394 0
vt 0.9807887673378 0.44139111042023 0
vt 0.35333973169327 0.5713917016983 0
vt 0.36424818634987 0.65007066726685 0
vt 0.3784696161747 0.65501028299332 0
vt 0.40109676122665 0.61926662921906 0
vt 0.93461793661118 0.90353727340698 0
vt 0.9807887673378 0.90353727340698 0
vt 0.76174873113632 0.01246440410614 0
vt 0.76174873113632 0.06317090988159 0
vt 0.80791956186295 0.06317090988159 0
vt 0.80791956186295 0.01246440410614 0
vt 0.32563850283623 0.75087708234787 0
vt 0.33615189790726 0.73714399337769 0
vt 0.33615189790726 0.67219811677933 0
vt 0.28962558507919 0.71944975852966 0
vt 0.9807887673378 0.52007001638412 0
vt 0.93461793661118 0.52007001638412 0
vt 0.35333973169327 0.63633751869202 0
vt 0.40097537636757 0.61926662921906 0
vt 0.9807887673378 0.17002499103546 0
vt 0.9807887673378 0.15432894229889 0
vt 0.93461793661118 0.15343332290649 0
vt 0.93461793661118 0.16923487186432 0
vt 0.39427122473717 0.65007066726685 0
vt 0.40404617786407 0.63633751869202 0
vt 0.40404617786407 0.5713917016983 0
vt 0.40141114592552 0.61864334344864 0
vt 0.31181210279465 0.75581669807434 0
vt 0.93461793661118 0.18345630168915 0
vt 0.9807887673378 0.18385136127472 0
vt 0.69547605514526 0.08605027198792 0
vt 0.71320801973343 0.10965430736542 0
vt 0.71320801973343 0.08605027198792 0
vt 0.70729738473892 0.09391832351685 0
vt 0.58389121294022 0.08605027198792 0
vt 0.48934659361839 0.08605027198792 0
vt 0.36372956633568 0.10965430736542 0
vt 0.37568047642708 0.08605027198792 0
vt 0.36372956633568 0.08605027198792 0
vt 0.70730274915695 0.09344089031219 0
vt 0.80265611410141 0.08605027198792 0
vt 0.81588178873062 0.10965430736542 0
vt 0.81588178873062 0.08605027198792 0
vt 0.83365422487259 0.26495981216431 0
vt 0.83332169055939 0.28894865512848 0
vt 0.8495357632637 0.28894865512848 0
vt 0.8495357632637 0.24506902694702 0
vt 0.09295060485601 0.41594457626343 0
vt 0.09200254827738 0.41594457626343 0
vt 0.09190683066845 0.43169391155243 0
vt 0.11284136027098 0.43169391155243 0
vt 0.26825758814812 0.8887323141098 0
vt 0.26825758814812 0.80376613140106 0
vt 0.09833075106144 0.8887323141098 0
vt 0.21219079196453 0.86009621620178 0
vt 0.26825758814812 0.78181517124176 0
vt 0.21219079196453 0.86009585857391 0
vt 0.26825758814812 0.76109021902084 0
vt 0.21219079196453 0.86009573936462 0
vt 0.26825758814812 0.66749012470245 0
vt 0.09833075106144 0.53925389051437 0
vt 0.26825758814812 0.6432039141655 0
vt 0.21166382730007 0.85995900630951 0
vt 0.26825758814812 0.62231761217117 0
vt 0.26825758814812 0.53925389051437 0
vt 0.00859392248094 0.29178929328918 0
vt 0.00859392248094 0.41594457626343 0
vt 0.35807237029076 0.29178929328918 0
vt 0.09802158921957 0.4237265586853 0
vt 0.13683018088341 0.41594457626343 0
vt 0.23043026030064 0.41594457626343 0
vt 0.27310615777969 0.41594457626343 0
vt 0.35807237029076 0.41594457626343 0
vt 0.00859392248094 0.47345995903015 0
vt 0.09165767580271 0.47345995903015 0
vt 0.8495357632637 0.38254868984222 0
vt 0.83306962251663 0.38254868984222 0
vt 0.92666971683502 0.08530879020691 0
vt 0.83306962251663 0.08530879020691 0
vt 0.83306962251663 0.12707471847534 0
vt 0.92666971683502 0.12707471847534 0
vt 0.27310615777969 0.43169391155243 0
vt 0.27310615777969 0.47345995903015 0
vt 0.35807237029076 0.47345995903015 0
vt 0.8495357632637 0.51019078493118 0
vt 0.8495357632637 0.4252245426178 0
vt 0.8330807685852 0.4252245426178 0
vt 0.84463220834732 0.45335209369659 0
vt 0.4131575524807 0.55420380830765 0
vt 0.4131575524807 0.55409377813339 0
vt 0.3924326300621 0.55409377813339 0
vt 0.3924326300621 0.55420380830765 0
vt 0.37048164010048 0.55409377813339 0
vt 0.37048164010048 0.55420380830765 0
vt 0.95894128084183 0.96591871976852 0
vt 0.9807887673378 0.95032578706741 0
vt 0.9807887673378 0.92072510719299 0
vt 0.93811285495758 0.92072510719299 0
vt 0.93811285495758 0.95032578706741 0
vt 0.96487194299698 0.93918216228485 0
vt 0.13683018088341 0.46129465103149 0
vt 0.13683018088341 0.43169391155243 0
vt 0.11284136027098 0.4768875837326 0
vt 0.09190683066845 0.46129465103149 0
vt 0.35329380631447 0.55420380830765 0
vt 0.35329380631447 0.55409377813339 0
vt 0.33240753412247 0.55409377813339 0
vt 0.33240753412247 0.55420380830765 0
vt 0.30812129378319 0.55409377813339 0
vt 0.30812129378319 0.55420380830765 0
vt 0.37535753846169 0.41594457626343 0
vt 0.37535753846169 0.29178929328918 0
vt 0.41002354025841 0.41594457626343 0
vt 0.09760704636574 0.42370319366455 0
vt 0.46074613928795 0.41594457626343 0
vt 0.46074613928795 0.29178929328918 0
vt 0.84690225124359 0.87685710191727 0
vt 0.83306962251663 0.87685710191727 0
vt 0.83306962251663 0.8941422700882 0
vt 0.83786219358444 0.8825027346611 0
vt 0.84690225124359 0.97953081130981 0
vt 0.83306962251663 0.97953081130981 0
vt 0.09833075106144 0.99140608310699 0
vt 0.26825758814812 0.94047337770462 0
vt 0.26825758814812 0.90559732913971 0
vt 0.26825758814812 0.99140608310699 0
vt 0.2117455303669 0.86013519763947 0
vt 0.4098134636879 0.47345995903015 0
vt 0.46074613928795 0.47345995903015 0
vt 0.40990096330643 0.44950091838837 0
vt 0.09755554795265 0.42354416847229 0
vt 0.37493735551834 0.47345995903015 0
vt 0.37511077523232 0.44972348213196 0
vt 0.09762371331453 0.42376291751862 0
vt 0.27931195497513 0.26147449016571 0
vt 0.33548736572266 0.20395922660828 0
vt 0.33548736572266 0.07980382442474 0
vt 0.27041122317314 0.11483108997345 0
vt 0.78009653091431 0.79701840877533 0
vt 0.78009653091431 0.92986464500427 0
vt 0.80561941862106 0.92986464500427 0
vt 0.80561941862106 0.79701840877533 0
vt 0.48898833990097 0.55098259449005 0
vt 0.48898833990097 0.67513793706894 0
vt 0.5451637506485 0.73265326023102 0
vt 0.55406451225281 0.58600986003876 0
vt 0.73738574981689 0.92986464500427 0
vt 0.76290863752365 0.92986464500427 0
vt 0.76290863752365 0.79701840877533 0
vt 0.73738574981689 0.79701840877533 0
vt 0.78009653091431 0.99140608310699 0
vt 0.80561941862106 0.99140608310699 0
vt 0.71509057283401 0.73265326023102 0
vt 0.71021664142609 0.58600986003876 0
vt 0.11425908654928 0.11483108997345 0
vt 0.10938511788845 0.26147449016571 0
vt 0.74456083774567 0.03764796257019 0
vt 0.56273913383484 0.03764796257019 0
vt 0.56273913383484 0.06317090988159 0
vt 0.74456083774567 0.06317090988159 0
vt 0.80482739210129 0.67513793706894 0
vt 0.80482739210129 0.55098259449005 0
vt 0.0196482911706 0.07980382442474 0
vt 0.0196482911706 0.20395922660828 0
vt 0.76290863752365 0.99140608310699 0
vt 0.73738574981689 0.99140608310699 0
vt 0.36372956633568 0.15044605731964 0
vt 0.36372956633568 0.27460145950317 0
vt 0.46640330553055 0.27460145950317 0
vt 0.46640330553055 0.15044605731964 0
vt 0.00859392248094 0.8887323141098 0
vt 0.00859392248094 0.99140608310699 0
vt 0.68898344039917 0.92986464500427 0
vt 0.72019791603088 0.92986464500427 0
vt 0.72019791603088 0.79701840877533 0
vt 0.68898344039917 0.79701840877533 0
vt 0.6405810713768 0.79701840877533 0
vt 0.6405810713768 0.92986464500427 0
vt 0.67179554700851 0.92986464500427 0
vt 0.67179554700851 0.79701840877533 0
vt 0.6405810713768 0.99140608310699 0
vt 0.67179554700851 0.99140608310699 0
vt 0.36372956633568 0.03764796257019 0
vt 0.36372956633568 0.0688624382019 0
vt 0.54555130004883 0.0688624382019 0
vt 0.54555130004883 0.03764796257019 0
vt 0.68898344039917 0.99140608310699 0
vt 0.72019791603088 0.99140608310699 0
vt 0.00859392248094 0.53925389051437 0
vt 0.81588178873062 0.27460145950317 0
vt 0.81588178873062 0.15044605731964 0
vt 0.69000446796417 0.77300453186035 0
vt 0.68898344039917 0.77300453186035 0
vt 0.70481342077255 0.96051931381226 0
vt 0.72019791603088 0.77300453186035 0
vt 0.80478453636169 0.77300453186035 0
vt 0.78009653091431 0.77300453186035 0
vt 0.79327470064163 0.96054267883301 0
vt 0.80561941862106 0.77300453186035 0
vt 0.33548736572266 0.05619990825653 0
vt 0.19547319412231 0.26758003234863 0
vt 0.31662219762802 0.05619990825653 0
vt 0.26813137531281 0.07726979255676 0
vt 0.1155075058341 0.07726979255676 0
vt 0.04649669677019 0.05619990825653 0
vt 0.0196482911706 0.05619990825653 0
vt 0.19539855420589 0.26756656169891 0
vt 0.73738574981689 0.77300453186035 0
vt 0.76290863752365 0.77300453186035 0
vt 0.46640330553055 0.12684214115143 0
vt 0.81588178873062 0.12684214115143 0
vt 0.36372956633568 0.12684214115143 0
vt 0.6405810713768 0.77300453186035 0
vt 0.67179554700851 0.77300453186035 0
vt 0.80482739210129 0.52737861871719 0
vt 0.48402976989746 0.61514341831207 0
vt 0.77797901630402 0.52737861871719 0
vt 0.70896822214127 0.54844862222672 0
vt 0.55634433031082 0.54844862222672 0
vt 0.50785350799561 0.52737861871719 0
vt 0.48898833990097 0.52737861871719 0
vt 0.48346117138863 0.61543798446655 0
vt 0.2668524980545 0.05619990825653 0
vt 0.19547209143639 0.26756191253662 0
vt 0.11620780825615 0.05619990825653 0
vt 0.19539904594421 0.26755177974701 0
vt 0.7082679271698 0.52737861871719 0
vt 0.55762320756912 0.52737861871719 0
vt 0.19866992533207 0.00859391689301 0
vt 0.19866992533207 0.03219795227051 0
vt 0.21250256896019 0.03219795227051 0
vt 0.20972429215908 0.00859391689301 0
vt 0.21250256896019 0.00859391689301 0
vt 0.20489168167114 0.02039587497711 0
vt 0.84690225124359 0.52737861871719 0
vt 0.83306962251663 0.52737861871719 0
vt 0.95569944381714 0.0803587436676 0
vt 0.95292115211487 0.0803587436676 0
vt 0.95292115211487 0.10396265983582 0
vt 0.96675378084183 0.10396265983582 0
vt 0.96675378084183 0.0803587436676 0
vt 0.95765942335129 0.09165155887604 0
vt 0.98077762126923 0.31916701793671 0
vt 0.94106841087341 0.31916701793671 0
vt 0.94106841087341 0.33989191055298 0
vt 0.9807830452919 0.3399955034256 0
vt 0.09165767580271 0.47356998920441 0
vt 0.92842733860016 0.06317090988159 0
vt 0.92842733860016 0.06306076049805 0
vt 0.88846606016159 0.02129483222961 0
vt 0.88846606016159 0.05089545249939 0
vt 0.9807887673378 0.23063981533051 0
vt 0.9807887673378 0.20103919506073 0
vt 0.94107949733734 0.24280524253845 0
vt 0.94107949733734 0.24291527271271 0
vt 0.9807887673378 0.3019791841507 0
vt 0.9807887673378 0.30186903476715 0
vt 0.94106841087341 0.26010310649872 0
vt 0.94106841087341 0.28970372676849 0
vt 0.94106841087341 0.36184287071228 0
vt 0.9807887673378 0.36184287071228 0
vt 0.9807887673378 0.37927985191345 0
vt 0.94020473957062 0.37903070449829 0
vt 0.94020473957062 0.39991700649261 0
vt 0.98049855232239 0.40021443367004 0
vt 0.94020473957062 0.42420327663422 0
vt 0.98016601800919 0.42420327663422 0
vt 0.29087096452713 0.5424724817276 0
vt 0.28544545173645 0.54243183135986 0
vt 0.28545621037483 0.55418348312378 0
vt 0.29093345999718 0.55420380830765 0
vt 0.37511077523232 0.51789158582687 0
vt 0.37493735551834 0.52206605672836 0
vt 0.45619764924049 0.75581669807434 0
vt 0.45619764924049 0.70721060037613 0
vt 0.42132157087326 0.70721060037613 0
vt 0.42132157087326 0.75581669807434 0
vt 0.42123404145241 0.68325155973434 0
vt 0.42123404145241 0.75141966342926 0
vt 0.40990096330643 0.51766902208328 0
vt 0.43772014975548 0.57837128639221 0
vt 0.4444175362587 0.57156509160995 0
vt 0.42123404145241 0.5713917016983 0
vt 0.42797377705574 0.57829833030701 0
vt 0.42123404145241 0.60626775026321 0
vt 0.42798015475273 0.59943693876266 0
vt 0.44463491439819 0.60635530948639 0
vt 0.43784555792809 0.59947371482849 0
vt 0.91737395524979 0.23244106769562 0
vt 0.91379475593567 0.20103919506073 0
vt 0.90404838323593 0.20274138450623 0
vt 0.91194844245911 0.23334801197052 0
vt 0.96196216344833 0.06311237812042 0
vt 0.96675378084183 0.03250563144684 0
vt 0.94561517238617 0.0325403213501 0
vt 0.95021051168442 0.06317090988159 0
vt 0.90952563285828 0.18385136127472 0
vt 0.91743010282516 0.15322089195251 0
vt 0.90756464004517 0.15131402015686 0
vt 0.90404838323593 0.18275201320648 0
vt 0.44002312421799 0.65498113632202 0
vt 0.44463491439819 0.6235431432724 0
vt 0.42353248596191 0.62371301651001 0
vt 0.42829179763794 0.65511482954025 0
vt 0.47793397307396 0.68423879146576 0
vt 0.47793397307396 0.55139255523682 0
vt 0.62339323759079 0.79701840877533 0
vt 0.6123389005661 0.79660850763321 0
vt 0.6123389005661 0.9207638502121 0
vt 0.62339323759079 0.92986464500427 0
vt 0.81588178873062 0.55139255523682 0
vt 0.81588178873062 0.68423879146576 0
vt 0.28544545173645 0.92986464500427 0
vt 0.29649981856346 0.9207638502121 0
vt 0.29649981856346 0.79660850763321 0
vt 0.28544545173645 0.79701840877533 0
vt 0.71986335515976 0.74578016996384 0
vt 0.38146385550499 0.99140608310699 0
vt 0.38623663783073 0.97827917337418 0
vt 0.53804165124893 0.74578016996384 0
vt 0.56328558921814 0.99140608310699 0
vt 0.55616348981857 0.97827917337418 0
vt 0.47793397307396 0.52737861871719 0
vt 0.62339323759079 0.77300453186035 0
vt 0.6123389005661 0.77300453186035 0
vt 0.29649981856346 0.77300453186035 0
vt 0.28544545173645 0.77300453186035 0
vt 0.81588178873062 0.52737861871719 0
vt 0.34654173254967 0.08021378517151 0
vt 0.34654173254967 0.21306002140045 0
vt 0.47793397307396 0.44864940643311 0
vt 0.48898833990097 0.43954861164093 0
vt 0.48898833990097 0.3153932094574 0
vt 0.47793397307396 0.31580317020416 0
vt 0.00859392248094 0.21306002140045 0
vt 0.00859392248094 0.08021378517151 0
vt 0.81588178873062 0.31580317020416 0
vt 0.80482739210129 0.3153932094574 0
vt 0.80482739210129 0.43954861164093 0
vt 0.81588178873062 0.44864940643311 0
vt 0.28643405437469 0.27460145950317 0
vt 0.53804165124893 0.51019078493118 0
vt 0.5451637506485 0.49706387519836 0
vt 0.10461232811213 0.27460145950317 0
vt 0.71986335515976 0.51019078493118 0
vt 0.71509057283401 0.49706387519836 0
vt 0.48898833990097 0.29178929328918 0
vt 0.47793397307396 0.29178929328918 0
vt 0.34654173254967 0.05619990825653 0
vt 0.00859392248094 0.05619990825653 0
vt 0.81588178873062 0.29178929328918 0
vt 0.80482739210129 0.29178929328918 0
# 486 texture coordinates

o Cube
usemtl default
f 3/4/1 4/3/2 2/2/2 1/1/1
f 5/25/3 6/24/3 12/23/3 13/39/3 9/7/3 4/6/3 3/5/3
f 7/12/5 8/11/6 6/10/6 5/9/5
f 1/37/7 2/36/7 10/35/7 14/15/7 11/14/7 8/29/7 7/13/7
f 4/3/2 9/18/8 10/17/8 2/2/2
f 5/22/9 3/21/9 1/20/9 7/19/9
f 12/28/10 6/10/6 8/11/6 11/27/10
f 14/34/11 10/33/8 9/32/8 13/31/11
f 13/31/11 12/41/10 11/40/10 14/34/11
f 17/45/1 18/44/12 16/43/12 15/42/1
f 19/66/3 20/65/3 26/64/3 27/80/3 23/48/3 18/47/3 17/46/3
f 21/53/5 22/52/13 20/51/13 19/50/5
f 15/78/7 16/77/7 24/76/7 28/56/7 25/55/7 22/70/7 21/54/7
f 18/44/12 23/59/14 24/58/14 16/43/12
f 19/63/9 17/62/9 15/61/9 21/60/9
f 26/69/15 20/51/13 22/52/13 25/68/15
f 28/75/16 24/74/14 23/73/14 27/72/16
f 27/72/16 26/82/15 25/81/15 28/75/16
f 31/86/1 32/85/17 30/84/17 29/83/1
f 33/107/3 34/106/3 40/105/3 41/121/3 37/89/3 32/88/3 31/87/3
f 35/94/5 36/93/18 34/92/18 33/91/5
f 29/119/7 30/118/7 38/117/7 42/97/7 39/96/7 36/111/7 35/95/7
f 32/85/17 37/100/19 38/99/19 30/84/17
f 33/104/9 31/103/9 29/102/9 35/101/9
f 40/110/20 34/92/18 36/93/18 39/109/20
f 42/116/21 38/115/19 37/114/19 41/113/21
f 41/113/21 40/123/20 39/122/20 42/116/21
f 45/127/1 46/126/22 44/125/22 43/124/1
f 47/148/3 48/147/3 54/146/3 55/162/3 51/130/3 46/129/3 45/128/3
f 49/135/5 50/134/23 48/133/23 47/132/5
f 43/160/7 44/159/7 52/158/7 56/138/7 53/137/7 50/152/7 49/136/7
f 46/126/22 51/141/24 52/140/24 44/125/22
f 47/145/9 45/144/9 43/143/9 49/142/9
f 54/151/25 48/133/23 50/134/23 53/150/25
f 56/157/26 52/156/24 51/155/24 55/154/26
f 55/154/26 54/164/25 53/163/25 56/157/26
f 170/167/3 96/166/3 169/165/3
f 169/165/3 96/166/3 171/169/3
f 171/169/3 96/166/3 97/171/3 172/170/3
f 172/170/3 97/171/3 173/172/3
f 173/172/3 97/171/3 174/173/3
f 176/177/3 95/176/3 175/175/3
f 175/175/3 95/176/3 96/166/3 170/167/3
f 99/181/27 101/180/29 108/179/28 122/178/27
f 122/185/27 107/184/31 100/183/30 99/182/27
f 75/188/33 105/187/32 74/186/32
f 75/188/33 120/190/32 105/187/32
f 75/188/33 104/192/32 120/190/32
f 67/195/34 102/194/32 104/192/32 75/188/33
f 67/195/34 124/196/32 102/194/32
f 67/195/34 98/198/32 124/196/32
f 67/195/34 68/199/32 98/198/32
f 79/202/3 100/183/3 65/201/3 80/200/3
f 79/202/3 99/182/3 100/183/3
f 79/202/3 101/204/3 99/182/3
f 79/202/3 103/205/3 101/204/3
f 79/202/3 106/206/35 103/205/3
f 79/202/3 73/207/3 106/206/35
f 68/208/37 65/201/36 100/183/30
f 107/184/31 98/209/38 68/208/37
f 100/183/30 107/184/31 68/208/37
f 109/211/40 108/179/28 101/180/29 103/210/39
f 104/215/41 102/214/41 108/213/28 109/212/40
f 73/207/45 74/218/44 105/217/43 110/216/42
f 110/221/42 106/220/46 73/219/45
f 121/226/7 120/225/7 104/224/7 115/223/7
f 116/228/7 105/227/7 120/225/7 121/226/7
f 109/232/47 110/231/48 118/230/48 119/229/47
f 119/229/47 117/233/49 109/232/47
f 125/237/51 122/185/51 108/236/50 114/235/50
f 113/238/52 107/184/52 122/185/51 125/237/51
f 123/242/7 124/241/7 98/240/7 111/239/7
f 112/244/7 102/243/7 124/241/7 123/242/7
f 126/246/3 128/245/3 73/207/3 79/202/3
f 126/246/3 130/247/3 128/245/3
f 126/246/3 78/250/3 69/249/3 130/247/3
f 126/253/32 79/252/32 96/251/32
f 78/256/32 126/253/32 96/251/32 95/255/32
f 127/259/32 129/258/32 71/257/53 75/188/33
f 129/258/32 72/260/32 71/257/53
f 74/186/32 127/259/32 75/188/33
f 131/264/56 72/263/55 129/262/54
f 130/247/58 69/249/57 72/263/55 131/264/56
f 132/267/60 127/266/59 74/218/44
f 128/245/61 132/267/60 74/218/44 73/207/45
f 82/272/1 81/271/64 58/270/63 62/269/62
f 165/276/3 161/275/3 158/274/3 166/273/3
f 90/280/5 61/279/67 59/278/66 77/277/65
f 168/284/7 167/283/7 157/282/7 162/281/7
f 164/286/59 159/285/59 158/274/59 161/275/59
f 90/280/5 89/288/5 63/287/68 61/279/67
f 82/272/1 62/269/62 64/290/69 83/289/1
f 164/294/32 163/293/70 160/292/70 159/291/32
f 89/288/5 88/296/72 60/295/71 63/287/68
f 83/289/1 64/290/69 57/298/74 84/297/73
f 163/300/70 162/281/75 157/282/75 160/299/70
f 86/304/7 76/303/7 70/302/7 87/301/7
f 75/188/33 71/257/53 70/306/75 76/305/76
f 154/310/3 153/309/3 145/308/3 149/307/3
f 155/314/7 150/313/7 146/312/7 156/311/7
f 151/316/70 148/315/70 146/312/75 150/313/75
f 152/320/32 147/319/32 148/318/70 151/317/70
f 149/307/77 145/308/77 147/322/77 152/321/77
f 76/305/76 66/323/78 67/195/34 75/188/33
f 86/304/7 85/325/7 66/324/7 76/303/7
f 154/310/3 178/327/3 203/326/3
f 203/326/3 177/329/3 153/309/3 154/310/3
f 166/273/3 180/331/3 202/330/3
f 202/330/3 179/333/3 165/276/3 166/273/3
f 82/272/1 182/334/79 81/271/64
f 182/334/79 82/272/1 91/337/1 181/336/1
f 83/289/1 92/338/1 91/337/1 82/272/1
f 184/340/80 183/339/1 92/338/1 83/289/1
f 184/340/80 83/289/1 84/297/73
f 185/343/7 167/283/7 168/284/7 186/342/7
f 187/345/7 85/325/7 86/304/7 188/344/7
f 188/344/7 86/304/7 87/301/7 189/346/7
f 190/348/7 155/314/7 156/311/7 191/347/7
f 89/288/5 192/349/81 88/296/72
f 192/349/81 89/288/5 93/352/5 193/351/5
f 90/280/5 94/353/5 93/352/5 89/288/5
f 195/355/82 194/354/5 94/353/5 90/280/5
f 195/355/82 90/280/5 77/277/65
f 181/336/1 91/337/1 196/357/1
f 196/357/1 91/337/1 92/338/1 197/359/1
f 197/359/1 92/338/1 183/339/1
f 193/351/5 93/352/5 198/361/5
f 199/362/5 198/361/5 93/352/5 94/353/5
f 199/362/5 94/353/5 194/354/5
f 202/366/1 97/365/1 80/364/1 200/363/1
f 202/366/1 174/367/1 97/365/1
f 96/251/32 79/252/32 80/370/32 97/369/32
f 78/374/5 95/373/5 176/372/5 203/371/5
f 201/375/5 78/374/5 203/371/5
f 119/380/84 121/379/84 115/378/83 117/377/83
f 109/211/40 103/210/39 106/220/46 110/221/42
f 111/381/85 98/209/85 107/184/85 113/238/85
f 114/385/5 108/384/5 102/383/5 112/382/5
f 115/389/1 104/388/1 109/387/1 117/386/1
f 118/393/5 110/392/5 105/391/5 116/390/5
f 119/380/84 118/395/86 116/394/86 121/379/84
f 125/399/88 123/398/88 111/397/87 113/396/87
f 125/399/88 114/401/89 112/400/89 123/398/88
f 131/264/56 132/267/60 128/245/61 130/247/58
f 143/405/90 142/404/90 141/403/90 144/402/90
f 133/407/91 127/266/91 132/267/91 136/406/91
f 134/411/7 129/410/7 127/409/7 133/408/7
f 135/413/92 131/412/92 129/410/92 134/411/92
f 136/406/93 132/267/93 131/264/93 135/414/93
f 137/418/95 133/417/95 136/416/94 140/415/94
f 138/420/96 134/419/96 133/417/95 137/418/95
f 139/422/97 135/421/97 134/419/96 138/420/96
f 140/415/94 136/416/94 135/421/97 139/422/97
f 141/426/98 137/425/98 140/424/98 144/423/98
f 142/430/99 138/429/99 137/428/99 141/427/99
f 143/434/100 139/433/100 138/432/100 142/431/100
f 144/438/101 140/437/101 139/436/101 143/435/101
f 153/440/103 77/277/65 59/278/66 145/439/102
f 149/444/105 69/443/105 78/442/104 154/441/104
f 146/446/107 60/295/71 88/296/72 156/445/106
f 155/450/109 87/449/109 70/448/108 150/447/108
f 148/451/110 63/287/68 60/295/71 146/446/107
f 150/447/108 70/448/108 71/453/111 151/452/111
f 147/454/112 61/279/67 63/287/68 148/451/110
f 151/452/111 71/453/111 72/456/113 152/455/113
f 145/439/102 59/278/66 61/279/67 147/454/112
f 152/455/113 72/456/113 69/443/105 149/444/105
f 153/440/103 177/457/103 195/355/82 77/277/65
f 78/442/104 201/459/114 178/458/114 154/441/104
f 155/450/109 190/461/109 189/460/109 87/449/109
f 88/296/72 192/349/81 191/462/106 156/445/106
f 158/464/116 58/270/63 81/271/64 166/463/115
f 165/468/118 80/467/118 65/466/117 161/465/117
f 167/470/120 84/297/73 57/298/74 157/469/119
f 162/474/122 66/473/122 85/472/121 168/471/121
f 159/475/123 62/269/62 58/270/63 158/464/116
f 161/465/117 65/466/117 68/477/124 164/476/124
f 160/478/125 64/290/69 62/269/62 159/475/123
f 164/476/124 68/477/124 67/480/126 163/479/126
f 157/469/119 57/298/74 64/290/69 160/478/125
f 163/479/126 67/480/126 66/473/122 162/474/122
f 165/468/118 179/482/127 200/481/127 80/467/118
f 81/271/64 182/334/79 180/483/128 166/463/115
f 167/470/120 185/484/120 184/340/80 84/297/73
f 85/472/121 187/486/129 186/485/129 168/471/121

