# WaveFront *.obj file (generated by CINEMA 4D)

mtllib ./Huis-12.mtl

v 190.87258911132812 52.06557083129883 224.97720336914062
v 190.87258911132812 72.59321594238281 224.97720336914062
v 233.02372741699219 52.06557083129883 224.97720336914062
v 233.02372741699219 72.59321594238281 224.97720336914062
v 233.02372741699219 52.06557083129883 180.17366027832031
v 233.02372741699219 72.59321594238281 180.17366027832031
v 190.87258911132812 52.06557083129883 180.17366027832031
v 190.87258911132812 72.59321594238281 180.17366027832031
v 190.87258911132812 -80.07138061523438 -175.99183654785156
v 190.87258911132812 -59.54373550415039 -175.99183654785156
v 233.02372741699219 -80.07138061523438 -175.99183654785156
v 233.02372741699219 -59.54373550415039 -175.99183654785156
v 233.02372741699219 -80.07138061523438 -220.79537963867188
v 233.02372741699219 -59.54373550415039 -220.79537963867188
v 190.87258911132812 -80.07138061523438 -220.79537963867188
v 190.87258911132812 -59.54373550415039 -220.79537963867188
v 170.8331298828125 -110.94859313964844 -155.29579162597656
v 170.8331298828125 -80.92407989501953 -155.29579162597656
v 232.48501586914062 -110.94859313964844 -155.29579162597656
v 232.48501586914062 -80.92407989501953 -155.29579162597656
v 232.48501586914062 -110.94859313964844 -220.82716369628906
v 232.48501586914062 -80.92407989501953 -220.82716369628906
v 170.8331298828125 -110.94859313964844 -220.82716369628906
v 170.8331298828125 -80.92407989501953 -220.82716369628906
v 193.41445922851562 74.11410522460938 223.4912109375
v 193.41445922851562 104.13861846923828 223.4912109375
v 233.82005310058594 74.11410522460938 223.4912109375
v 233.82005310058594 104.13861846923828 223.4912109375
v 233.82005310058594 74.11410522460938 157.95982360839844
v 233.82005310058594 104.13861846923828 157.95982360839844
v 193.41445922851562 74.11410522460938 157.95982360839844
v 193.41445922851562 104.13861846923828 157.95982360839844
v 151.54597473144531 -142.95072937011719 146.23849487304688
v 151.54597473144531 27.805419921875 146.23849487304688
v 248.85809326171875 -142.95072937011719 146.23849487304688
v 248.85809326171875 27.805419921875 146.23849487304688
v 248.85809326171875 -142.95072937011719 61.76963424682617
v 248.85809326171875 27.805419921875 61.76963424682617
v 151.54597473144531 -142.95072937011719 61.76963424682617
v 151.54597473144531 27.805419921875 61.76963424682617
v 151.54597473144531 69.32266235351562 103.11669921875
v 248.85809326171875 69.32266235351562 103.65046691894531
v 248.85809326171875 59.77053833007812 78.50569152832031
v 151.54597473144531 59.77053833007812 77.57962799072266
v 151.54597473144531 59.77053833007812 129.42898559570312
v 248.85809326171875 59.77053833007812 128.71611022949219
v 248.85809326171875 -69.65749359130859 139.90333557128906
v 248.85809326171875 31.13632583618164 76.14173889160156
v 248.85809326171875 48.82196044921875 99.60575103759766
v 248.85809326171875 -110.84088897705078 68.10479736328125
v 248.85809326171875 30.99370384216309 131.20346069335938
v 248.85809326171875 -66.21385955810547 68.10479736328125
v 248.85809326171875 31.53346824645996 131.15679931640625
v 248.85809326171875 50.28836822509766 103.46588134765625
v 248.85809326171875 -130.14401245117188 68.10479736328125
v 248.85809326171875 -130.14401245117188 139.90333557128906
v 248.85809326171875 46.03584289550781 115.17988586425781
v 248.85809326171875 46.42158508300781 113.61266326904297
v 248.85809326171875 29.22930526733398 75.14327239990234
v 248.85809326171875 42.16905975341797 125.32666778564453
v 248.85809326171875 14.99870872497559 68.10479736328125
v 248.85809326171875 14.99870872497559 139.90333557128906
v 248.85809326171875 27.93846321105957 132.81011962890625
v 248.85809326171875 29.22930526733398 132.41987609863281
v 248.85809326171875 42.16905975341797 81.91817474365234
v 248.85809326171875 46.42158508300781 93.28705596923828
v 209.46531677246094 -130.14401245117188 139.90333557128906
v 209.46531677246094 14.99870872497559 139.90333557128906
v 209.46531677246094 -130.14401245117188 68.10479736328125
v 209.46531677246094 14.99870872497559 68.10479736328125
v 209.46531677246094 50.28836822509766 103.24980163574219
v 209.46531677246094 42.16905975341797 81.54329681396484
v 209.46531677246094 42.16905975341797 125.61524200439453
v 248.85809326171875 48.82196044921875 99.60575103759766
v 133.17221069335938 -51.22146987915039 -34.22781372070312
v 133.17221069335938 50.31083679199219 -34.22781372070312
v 237.80426025390625 -51.22146987915039 -34.22781372070312
v 237.80426025390625 50.31083679199219 -34.22781372070312
v 237.80426025390625 -51.22146987915039 -116.28200531005859
v 237.80426025390625 50.31083679199219 -116.28200531005859
v 133.17221069335938 -51.22146987915039 -116.28200531005859
v 133.17221069335938 50.31083679199219 -116.28200531005859
v 126.26650238037109 59.31174468994141 -28.81223487854004
v 244.70997619628906 59.31174468994141 -28.81223487854004
v 244.70997619628906 59.31174468994141 -121.69757843017578
v 126.26650238037109 59.31174468994141 -121.69757843017578
v 127.67903137207031 -59.94901275634766 -29.91996765136719
v 243.29743957519531 -59.94901275634766 -29.91996765136719
v 243.29743957519531 -59.94901275634766 -120.58985137939453
v 127.67903137207031 -59.94901275634766 -120.58985137939453
v 237.80426025390625 41.71525192260742 -39.26792526245117
v 237.80426025390625 -42.62588500976562 -39.26792526245117
v 237.80426025390625 41.71525192260742 -111.24188995361328
v 237.80426025390625 -42.62588500976562 -111.24188995361328
v 220.40536499023438 -42.62588500976562 -39.26792526245117
v 220.40536499023438 41.71525192260742 -39.26792526245117
v 220.40536499023438 -42.62588500976562 -111.24188995361328
v 220.40536499023438 41.71525192260742 -111.24188995361328
v 237.80426025390625 -42.62588500976562 -39.26792526245117
v 237.80426025390625 41.71525192260742 -111.24188995361328
v -235.83047485351562 -144.37190246582031 211.84870910644531
v -235.83047485351562 143.88999938964844 211.84870910644531
v 221.27896118164062 -144.37190246582031 211.84870910644531
v 221.27896118164062 143.88999938964844 211.84870910644531
v 221.27896118164062 -144.37190246582031 -212.87265014648438
v 221.27896118164062 143.88999938964844 -212.87265014648438
v -235.83047485351562 -144.37190246582031 -212.87265014648438
v -235.83047485351562 143.88999938964844 -212.87265014648438
v 221.27896118164062 126.98139190673828 -212.87265014648438
v 221.27896118164062 126.98139190673828 211.84870910644531
v -235.83047485351562 126.98139190673828 211.84870910644531
v -235.83047485351562 126.98139190673828 -212.87265014648438
v -248.85809326171875 144.37190246582031 223.95326232910156
v 234.30657958984375 144.37190246582031 223.95326232910156
v 234.30657958984375 144.37190246582031 -224.97720336914062
v -248.85809326171875 144.37190246582031 -224.97720336914062
v 234.30657958984375 126.49949645996094 -224.97720336914062
v 234.30657958984375 126.49949645996094 223.95326232910156
v -248.85809326171875 126.49949645996094 223.95326232910156
v -248.85809326171875 126.49949645996094 -224.97720336914062
# 120 vertices

vn 0 0 1
vn 1 0 0
vn 0 0 -1
vn -1 0 0
vn 0 1 0
vn 0 -1 0
vn 0.00167146907188 0.24390552937984 0.96979755163193
vn 0 0 0
vn 0.00324197323062 0.47307792305946 0.88101464509964
vn -0.00421555200592 -0.45361599326134 0.89118725061417
vn -0.00321197928861 -0.47307786345482 -0.88101476430893
vn 0.00421555200592 0.45361599326134 -0.89118725061417
vn -0.00027327434509 -0.93724113702774 -0.34868183732033
vn 0.00264095026068 0.93572020530701 -0.35273319482803
vn -0.00264094932936 -0.93572020530701 0.35273319482803
vn 0.00036848761374 0.9372410774231 0.34868183732033
vn -0.00267003104091 -0.29063937067986 -0.95682895183563
vn 0 -0.24810101091862 -0.96873414516449
vn -0.00648357765749 -0.46542817354202 -0.88506191968918
vn -0.00648374855518 -0.46542784571648 -0.88506209850311
vn -0.00324209802784 -0.47307792305946 -0.88101464509964
vn 0.00421570148319 0.45361655950546 -0.89118695259094
vn 0.00843078270555 0.46382680535316 -0.88588577508926
vn -0.00000001277874 0.44333827495575 -0.89635437726974
vn 0.00642359443009 0.48067757487297 0.87687391042709
vn 0.0064235702157 0.48067745566368 0.87687397003174
vn 0.00428255880252 0.47561568021774 0.87964272499084
vn 0.00321193481795 0.47307789325714 0.88101476430893
vn 0.00000005047206 0.46543806791306 0.8850804567337
vn 0.00000001277874 -0.44333827495575 0.89635437726974
vn -0.00562080740929 -0.45702740550041 0.88943487405777
vn -0.0042157350108 -0.45361655950546 0.89118695259094
vn -0.00843046139926 -0.46382573246956 0.88588637113571
vn -0.00843065604568 -0.46382626891136 0.88588607311249
vn 0.0002732333669 0.93724101781845 0.34868204593658
vn -0.00195331638679 0.93444484472275 0.35610261559486
vn 0.00249976455234 0.93997365236282 0.3412379026413
vn -0.00194794614799 -0.93481731414795 0.35512357950211
vn -0.00194798444863 -0.93481749296188 0.35512322187424
vn -0.00240999180824 -0.93541997671127 0.35353025794029
vn -0.00264101242647 -0.93572020530701 0.35273316502571
vn -0.00333398347721 -0.93661630153656 0.35034096240997
vn 0.00333398347721 0.93661630153656 -0.35034096240997
vn 0.00187178968918 -0.93997490406036 -0.34123837947845
vn -0.00036844148417 -0.93724101781845 -0.34868201613426
vn -0.00260864780284 -0.93444341421127 -0.35610204935074
vn 0 0.2272511869669 0.97383618354797
vn 0 -0.26752489805222 0.96355092525482
vn 0.98293507099152 0.18395291268826 0
vn 0.97707086801529 -0.21291422843933 0
vn 0 0.2272511869669 -0.97383618354797
vn 0 -0.26752465963364 -0.96355098485947
vn -0.96081155538559 0.27720239758492 0
vn -0.94694060087204 -0.32140865921974 0
vn -0.79339295625687 -0.60870975255966 0
vn 0 -0.51554733514786 -0.85686111450195
vn 0.79339265823364 -0.60871016979218 0
vn 0 -0.51554775238037 0.85686087608337
vn -0.84631764888763 0.53267854452133 0
vn 0 0.44261083006859 0.89671379327774
vn 0.84631764888763 0.53267854452133 0
vn 0 0.44261083006859 -0.89671379327774
vn 0.01232590619475 0.99983602762222 -0.01326441578567
vn 0.01232590619475 0.99983602762222 0.01326441578567
vn -0.01232590619475 0.99983602762222 0.01326441578567
vn -0.01232590619475 0.99983602762222 -0.01326441578567
vn 0.01848961599171 0.99963104724884 -0.0198974404484
vn -0.01848961599171 0.99963104724884 -0.0198974404484
vn -0.01848932355642 -0.99963104724884 -0.01989712193608
vn 0.01848932355642 -0.99963104724884 -0.01989712193608
vn -0.01848961599171 0.99963104724884 0.0198974404484
vn -0.01848932355642 -0.99963104724884 0.01989712193608
vn 0.01848961599171 0.99963104724884 0.0198974404484
vn 0.01848932355642 -0.99963104724884 0.01989712193608
# 74 normals

vt 0.83625769615173 0.00850248336792 0
vt 0.83625769615173 0.02325177192688 0
vt 0.86654371023178 0.02325177192688 0
vt 0.86654371023178 0.00850248336792 0
vt 0.95286697149277 0.35930204391479 0
vt 0.95286697149277 0.37405133247375 0
vt 0.98505878448486 0.37405133247375 0
vt 0.98505878448486 0.35930204391479 0
vt 0.71810871362686 0.01464557647705 0
vt 0.71810871362686 0.02939486503601 0
vt 0.74839472770691 0.02939486503601 0
vt 0.74839472770691 0.01464557647705 0
vt 0.95286697149277 0.32754790782928 0
vt 0.95286697149277 0.34229719638824 0
vt 0.98505878448486 0.34229719638824 0
vt 0.98505878448486 0.32754790782928 0
vt 0.91588044166565 0.85197496414185 0
vt 0.91588044166565 0.8841667175293 0
vt 0.9461664557457 0.8841667175293 0
vt 0.9461664557457 0.85197496414185 0
vt 0.88354855775833 0.09245455265045 0
vt 0.88354855775833 0.12464642524719 0
vt 0.91383457183838 0.12464642524719 0
vt 0.91383457183838 0.09245455265045 0
vt 0.88354855775833 0.00850248336792 0
vt 0.88354855775833 0.02325177192688 0
vt 0.91383457183838 0.02325177192688 0
vt 0.91383457183838 0.00850248336792 0
vt 0.95286697149277 0.26403951644897 0
vt 0.95286697149277 0.27878892421722 0
vt 0.98505878448486 0.27878892421722 0
vt 0.98505878448486 0.26403951644897 0
vt 0.78896683454514 0.00850248336792 0
vt 0.78896683454514 0.02325177192688 0
vt 0.81925284862518 0.02325177192688 0
vt 0.81925284862518 0.00850248336792 0
vt 0.95286697149277 0.29579365253448 0
vt 0.95286697149277 0.31054306030273 0
vt 0.98505878448486 0.31054306030273 0
vt 0.98505878448486 0.29579365253448 0
vt 0.91588044166565 0.8027783036232 0
vt 0.91588044166565 0.8349701166153 0
vt 0.9461664557457 0.8349701166153 0
vt 0.9461664557457 0.8027783036232 0
vt 0.71810871362686 0.04639971256256 0
vt 0.71810871362686 0.07859146595001 0
vt 0.74839472770691 0.07859146595001 0
vt 0.74839472770691 0.04639971256256 0
vt 0.88354855775833 0.04025661945343 0
vt 0.88354855775833 0.06182956695557 0
vt 0.92784607410431 0.06182956695557 0
vt 0.92784607410431 0.04025661945343 0
vt 0.88877719640732 0.39105618000031 0
vt 0.88877719640732 0.41262912750244 0
vt 0.93586218357086 0.41262912750244 0
vt 0.93586218357086 0.39105618000031 0
vt 0.91660815477371 0.62351304292679 0
vt 0.91660815477371 0.64508593082428 0
vt 0.96090567111969 0.64508593082428 0
vt 0.96090567111969 0.62351304292679 0
vt 0.88354855775833 0.14165115356445 0
vt 0.88354855775833 0.16322410106659 0
vt 0.93063354492188 0.16322410106659 0
vt 0.93063354492188 0.14165115356445 0
vt 0.71810871362686 0.09559631347656 0
vt 0.71810871362686 0.14268124103546 0
vt 0.76240622997284 0.14268124103546 0
vt 0.76240622997284 0.09559631347656 0
vt 0.8222461938858 0.11613917350769 0
vt 0.8222461938858 0.16322410106659 0
vt 0.86654371023178 0.16322410106659 0
vt 0.86654371023178 0.11613917350769 0
vt 0.92336088418961 0.19726884365082 0
vt 0.92336088418961 0.21884167194366 0
vt 0.95239269733429 0.21884167194366 0
vt 0.95239269733429 0.19726884365082 0
vt 0.88877719640732 0.4296338558197 0
vt 0.88877719640732 0.45120680332184 0
vt 0.93586218357086 0.45120680332184 0
vt 0.93586218357086 0.4296338558197 0
vt 0.91660815477371 0.5849352478981 0
vt 0.91660815477371 0.60650819540024 0
vt 0.9456399679184 0.60650819540024 0
vt 0.9456399679184 0.5849352478981 0
vt 0.88877719640732 0.46821165084839 0
vt 0.88877719640732 0.48978459835052 0
vt 0.93586218357086 0.48978459835052 0
vt 0.93586218357086 0.46821165084839 0
vt 0.88877719640732 0.94441258907318 0
vt 0.88877719640732 0.99149757623672 0
vt 0.917809009552 0.99149757623672 0
vt 0.917809009552 0.94441258907318 0
vt 0.87057149410248 0.59800100326538 0
vt 0.87057149410248 0.64508593082428 0
vt 0.89960330724716 0.64508593082428 0
vt 0.89960330724716 0.59800100326538 0
vt 0.71810871362686 0.36709451675415 0
vt 0.71810871362686 0.48978459835052 0
vt 0.78802847862244 0.48978459835052 0
vt 0.78802847862244 0.36709451675415 0
vt 0.77424854040146 0.68551659584045 0
vt 0.77424854040146 0.69938611984253 0
vt 0.77880042791367 0.67631483078003 0
vt 0.77576583623886 0.68707251548767 0
vt 0.71810871362686 0.67631483078003 0
vt 0.72266060113907 0.72897678613663 0
vt 0.72266060113907 0.68551659584045 0
vt 0.7487086057663 0.82883548736572 0
vt 0.75161480903625 0.81410551071167 0
vt 0.74884128570557 0.81515908241272 0
vt 0.73313409090042 0.80932533740997 0
vt 0.72894507646561 0.80168354511261 0
vt 0.73069870471954 0.82197213172913 0
vt 0.74042463302612 0.81210362911224 0
vt 0.74155068397522 0.81238079071045 0
vt 0.7289115190506 0.80129569768906 0
vt 0.71810871362686 0.84584027528763 0
vt 0.71810871362686 0.96853029727936 0
vt 0.78802847862244 0.96853029727936 0
vt 0.78802847862244 0.84584027528763 0
vt 0.76672261953354 0.65244668722153 0
vt 0.77880042791367 0.6294794678688 0
vt 0.77880042791367 0.50678938627243 0
vt 0.77549302577972 0.59552001953125 0
vt 0.80503326654434 0.86583542823792 0
vt 0.80503326654434 0.88880264759064 0
vt 0.87495303153992 0.88880264759064 0
vt 0.87495303153992 0.86583542823792 0
vt 0.80185258388519 0.50678938627243 0
vt 0.80185258388519 0.56748116016388 0
vt 0.87177234888077 0.56748116016388 0
vt 0.87177234888077 0.50678938627243 0
vt 0.79662394523621 0.09913432598114 0
vt 0.86654371023178 0.09913432598114 0
vt 0.86654371023178 0.07616710662842 0
vt 0.79662394523621 0.07616710662842 0
vt 0.76919132471085 0.80002796649933 0
vt 0.76847392320633 0.80139815807343 0
vt 0.76677542924881 0.82197213172913 0
vt 0.77880042791367 0.7990049123764 0
vt 0.77424854040146 0.78980314731598 0
vt 0.77424854040146 0.73145109415054 0
vt 0.71810871362686 0.50678938627243 0
vt 0.71810871362686 0.6294794678688 0
vt 0.72946834564209 0.65244668722153 0
vt 0.77493536472321 0.59623849391937 0
vt 0.83539944887161 0.34612488746643 0
vt 0.83539944887161 0.36909222602844 0
vt 0.90531921386719 0.36909222602844 0
vt 0.90531921386719 0.34612488746643 0
vt 0.78802847862244 0.99149757623672 0
vt 0.71810871362686 0.99149757623672 0
vt 0.72803753614426 0.80002796649933 0
vt 0.77594524621964 0.68707245588303 0
vt 0.71810871362686 0.7990049123764 0
vt 0.72266060113907 0.78980314731598 0
vt 0.77579200267792 0.68680053949356 0
vt 0.72775709629059 0.79910051822662 0
vt 0.7478169798851 0.65930998325348 0
vt 0.77512621879578 0.59623849391937 0
vt 0.95869696140289 0.92689561843872 0
vt 0.95869696140289 0.90888565778732 0
vt 0.88877719640732 0.90850216150284 0
vt 0.88877719640732 0.92740780115128 0
vt 0.95869696140289 0.5248561501503 0
vt 0.95869696140289 0.50678938627243 0
vt 0.88877719640732 0.50717294216156 0
vt 0.88877719640732 0.52552157640457 0
vt 0.77648437023163 0.6863539814949 0
vt 0.75615483522415 0.81238079071045 0
vt 0.77634990215302 0.68681275844574 0
vt 0.76432353258133 0.80932533740997 0
vt 0.88877719640732 0.56087505817413 0
vt 0.95869696140289 0.56125855445862 0
vt 0.95869696140289 0.54319179058075 0
vt 0.88877719640732 0.54252636432648 0
vt 0.79662394523621 0.04025661945343 0
vt 0.79662394523621 0.05916225910187 0
vt 0.86654371023178 0.05877876281738 0
vt 0.86654371023178 0.04076886177063 0
vt 0.8988755941391 0.66209077835083 0
vt 0.87057149410248 0.66209077835083 0
vt 0.87057149410248 0.705550968647 0
vt 0.8988755941391 0.76637732982636 0
vt 0.87057149410248 0.76637732982636 0
vt 0.88472354412079 0.69902747869492 0
vt 0.35062825679779 0.24537622928619 0
vt 0.37893238663673 0.24537622928619 0
vt 0.37893238663673 0.18702411651611 0
vt 0.35062825679779 0.14108967781067 0
vt 0.37893238663673 0.14108967781067 0
vt 0.37893238663673 0.15495920181274 0
vt 0.3647803068161 0.20471656322479 0
vt 0.79580527544022 0.80347943305969 0
vt 0.8060714006424 0.82300162315369 0
vt 0.79580527544022 0.69919294118881 0
vt 0.79994583129883 0.77450621128082 0
vt 0.85356664657593 0.68161296844482 0
vt 0.85356664657593 0.66209077835083 0
vt 0.82526254653931 0.67358332872391 0
vt 0.82526254653931 0.68161296844482 0
vt 0.82526254653931 0.67138808965683 0
vt 0.83941459655762 0.67472499608994 0
vt 0.82526254653931 0.66209077835083 0
vt 0.87057149410248 0.8349701166153 0
vt 0.8988755941391 0.8349701166153 0
vt 0.8988755941391 0.78338217735291 0
vt 0.87057149410248 0.78338217735291 0
vt 0.9461664557457 0.67682164907455 0
vt 0.91786235570908 0.66752433776855 0
vt 0.91786235570908 0.66889452934265 0
vt 0.92729705572128 0.67108017206192 0
vt 0.95914351940155 0.1051242351532 0
vt 0.93083941936493 0.1051242351532 0
vt 0.93083941936493 0.11534905433655 0
vt 0.95914351940155 0.12464642524719 0
vt 0.84739327430725 0.80347943305969 0
vt 0.84739327430725 0.69919294118881 0
vt 0.83773756027222 0.82300162315369 0
vt 0.79922729730606 0.77522468566895 0
vt 0.96311795711517 0.99149757623672 0
vt 0.96311795711517 0.98385578393936 0
vt 0.93481385707855 0.99149757623672 0
vt 0.95386272668838 0.9889503121376 0
vt 0.96311795711517 0.98220026493073 0
vt 0.95368325710297 0.9889503121376 0
vt 0.93481385707855 0.97197538614273 0
vt 0.96311795711517 0.97197538614273 0
vt 0.95286697149277 0.39105618000031 0
vt 0.95286697149277 0.4105783700943 0
vt 0.98117113113403 0.40128099918365 0
vt 0.98117113113403 0.39105618000031 0
vt 0.98117113113403 0.4105783700943 0
vt 0.98117113113403 0.40265119075775 0
vt 0.96701908111572 0.39849293231964 0
vt 0.82214123010635 0.82883548736572 0
vt 0.79947906732559 0.77522468566895 0
vt 0.94485092163086 0.05632638931274 0
vt 0.97315502166748 0.05617117881775 0
vt 0.97315502166748 0.0488805770874 0
vt 0.96372032165527 0.05379271507263 0
vt 0.94485092163086 0.04025661945343 0
vt 0.97315502166748 0.04046392440796 0
vt 0.9461664557457 0.76985895633698 0
vt 0.9461664557457 0.76708543300629 0
vt 0.91786235570908 0.76970368623734 0
vt 0.93745023012161 0.78284883499146 0
vt 0.9461664557457 0.76254534721375 0
vt 0.93707394599915 0.78304040431976 0
vt 0.96317130327225 0.86857044696808 0
vt 0.96317130327225 0.8841667175293 0
vt 0.99147540330887 0.87700843811035 0
vt 0.99147540330887 0.86883974075317 0
vt 0.83746820688248 0.82300162315369 0
vt 0.82929956912994 0.82605713605881 0
vt 0.91786235570908 0.78577351570129 0
vt 0.9461664557457 0.77827560901642 0
vt 0.9461664557457 0.78556615114212 0
vt 0.93673175573349 0.78285336494446 0
vt 0.72307050228119 0.26865184307098 0
vt 0.72307050228119 0.34160387516022 0
vt 0.7982497215271 0.34160387516022 0
vt 0.7982497215271 0.26865184307098 0
vt 0.81254583597183 0.91825437545776 0
vt 0.86425983905792 0.91825437545776 0
vt 0.86788123846054 0.91207832098007 0
vt 0.80892443656921 0.91207832098007 0
vt 0.86788123846054 0.98503035306931 0
vt 0.86425983905792 0.97885429859161 0
vt 0.81254583597183 0.97885429859161 0
vt 0.80892443656921 0.98503035306931 0
vt 0.72307050228119 0.16595697402954 0
vt 0.72307050228119 0.23890900611877 0
vt 0.7982497215271 0.23890900611877 0
vt 0.7982497215271 0.16595697402954 0
vt 0.80892443656921 0.41036534309387 0
vt 0.80892443656921 0.48331737518311 0
vt 0.86788123846054 0.48331737518311 0
vt 0.86788123846054 0.41036534309387 0
vt 0.82021635770798 0.26238107681274 0
vt 0.82021635770798 0.32912015914917 0
vt 0.90531921386719 0.32912015914917 0
vt 0.90531921386719 0.26238107681274 0
vt 0.8222461938858 0.18022894859314 0
vt 0.8222461938858 0.24537622928619 0
vt 0.90531921386719 0.24537622928619 0
vt 0.90531921386719 0.18022894859314 0
vt 0.87177234888077 0.48978459835052 0
vt 0.80503326654434 0.48978459835052 0
vt 0.80321156978607 0.24537622928619 0
vt 0.71810871362686 0.24537622928619 0
vt 0.87177234888077 0.99149757623672 0
vt 0.80503326654434 0.99149757623672 0
vt 0.80321156978607 0.34807109832764 0
vt 0.71810871362686 0.34807109832764 0
vt 0.80582922697067 0.40409445762634 0
vt 0.87097644805908 0.40409445762634 0
vt 0.71912360191345 0.26238107681274 0
vt 0.80219662189484 0.26238107681274 0
vt 0.80582922697067 0.90580749511719 0
vt 0.87097644805908 0.90580749511719 0
vt 0.71912360191345 0.15968608856201 0
vt 0.80219662189484 0.15968608856201 0
vt 0.93586218357086 0.23584651947021 0
vt 0.92336088418961 0.23584651947021 0
vt 0.92336088418961 0.29644656181335 0
vt 0.93586218357086 0.29644656181335 0
vt 0.92336088418961 0.37405133247375 0
vt 0.93586218357086 0.37405133247375 0
vt 0.93586218357086 0.3134514093399 0
vt 0.92336088418961 0.3134514093399 0
vt 0.85356664657593 0.64508593082428 0
vt 0.85356664657593 0.58448594808578 0
vt 0.80185258388519 0.58448594808578 0
vt 0.80185258388519 0.64508593082428 0
vt 0.95286697149277 0.48134791851044 0
vt 0.96536827087402 0.48134791851044 0
vt 0.96536827087402 0.4296338558197 0
vt 0.95286697149277 0.4296338558197 0
vt 0.93366515636444 0.74554049968719 0
vt 0.9461664557457 0.74554049968719 0
vt 0.9461664557457 0.6938264966011 0
vt 0.93366515636444 0.6938264966011 0
vt 0.00850241445005 0.08754920959473 0
vt 0.00850241445005 0.10039067268372 0
vt 0.35566121339798 0.10039067268372 0
vt 0.35566121339798 0.08754920959473 0
vt 0.37854269146919 0.02055978775024 0
vt 0.37854269146919 0.03340125083923 0
vt 0.70110386610031 0.03340125083923 0
vt 0.70110386610031 0.02055978775024 0
vt 0.00850241445005 0.0577027797699 0
vt 0.00850241445005 0.07054436206818 0
vt 0.35566121339798 0.07054436206818 0
vt 0.35566121339798 0.0577027797699 0
vt 0.00850241445005 0.02785646915436 0
vt 0.00850241445005 0.04069805145264 0
vt 0.33106356859207 0.04069805145264 0
vt 0.33106356859207 0.02785646915436 0
vt 0.01786289177835 0.33806777000427 0
vt 0.01786289177835 0.64323437213898 0
vt 0.34630072116852 0.64323437213898 0
vt 0.34630072116852 0.33806777000427 0
vt 0.37266603112221 0.68633091449738 0
vt 0.37266603112221 0.99149757623672 0
vt 0.70110386610031 0.99149757623672 0
vt 0.70110386610031 0.68633091449738 0
vt 0.31366908550262 0.31236565113068 0
vt 0.31366908550262 0.11739552021027 0
vt 0.00850241445005 0.11739552021027 0
vt 0.00850241445005 0.31236565113068 0
vt 0.70110386610031 0.45735120773315 0
vt 0.70110386610031 0.26238107681274 0
vt 0.37266603112221 0.26238107681274 0
vt 0.37266603112221 0.45735120773315 0
vt 0.70110386610031 0.24537622928619 0
vt 0.70110386610031 0.05040609836578 0
vt 0.39593720436096 0.05040609836578 0
vt 0.39593720436096 0.24537622928619 0
vt 0.70110386610031 0.66932612657547 0
vt 0.70110386610031 0.47435593605042 0
vt 0.37266603112221 0.47435593605042 0
vt 0.37266603112221 0.66932612657547 0
vt 0.00850241445005 0.32937049865723 0
vt 0.35566121339798 0.32937049865723 0
vt 0.35566121339798 0.99149757623672 0
vt 0.34630072116852 0.98280036449432 0
vt 0.01786289177835 0.98280036449432 0
vt 0.00850241445005 0.99149757623672 0
vt 0.35566121339798 0.65193158388138 0
vt 0.35566121339798 0.66893643140793 0
vt 0.34630072116852 0.67763370275497 0
vt 0.00850241445005 0.65193158388138 0
vt 0.00850241445005 0.66893643140793 0
vt 0.01786289177835 0.67763370275497 0
# 375 texture coordinates

o House_12
usemtl default
f 3/4/1 4/3/1 2/2/1 1/1/1
f 5/8/2 6/7/2 4/6/2 3/5/2
f 7/12/3 8/11/3 6/10/3 5/9/3
f 1/16/4 2/15/4 8/14/4 7/13/4
f 4/20/5 6/19/5 8/18/5 2/17/5
f 5/24/6 3/23/6 1/22/6 7/21/6
f 11/28/1 12/27/1 10/26/1 9/25/1
f 13/32/2 14/31/2 12/30/2 11/29/2
f 15/36/3 16/35/3 14/34/3 13/33/3
f 9/40/4 10/39/4 16/38/4 15/37/4
f 12/44/5 14/43/5 16/42/5 10/41/5
f 13/48/6 11/47/6 9/46/6 15/45/6
f 19/52/1 20/51/1 18/50/1 17/49/1
f 21/56/2 22/55/2 20/54/2 19/53/2
f 23/60/3 24/59/3 22/58/3 21/57/3
f 17/64/4 18/63/4 24/62/4 23/61/4
f 20/68/5 22/67/5 24/66/5 18/65/5
f 21/72/6 19/71/6 17/70/6 23/69/6
f 27/76/1 28/75/1 26/74/1 25/73/1
f 29/80/2 30/79/2 28/78/2 27/77/2
f 31/84/3 32/83/3 30/82/3 29/81/3
f 25/88/4 26/87/4 32/86/4 31/85/4
f 28/92/5 30/91/5 32/90/5 26/89/5
f 29/96/6 27/95/6 25/94/6 31/93/6
f 35/100/1 36/99/7 34/98/7 33/97/1
f 37/103/2 50/102/2 55/101/2
f 56/107/2 47/106/2 35/105/2
f 56/107/2 35/105/2 37/103/2 55/101/2
f 54/110/2 49/109/2 42/108/2
f 46/113/2 53/112/2 60/111/2
f 42/108/2 46/113/2 60/111/2 57/114/2
f 57/114/2 54/110/2 42/108/2
f 60/111/2 58/115/2 54/110/2 57/114/2
f 60/111/2 53/112/2 51/116/2
f 39/120/3 40/119/3 38/118/3 37/117/3
f 33/123/4 34/122/4 45/121/4
f 36/128/7 46/127/9 45/126/9 34/125/7
f 37/132/6 35/131/6 33/130/6 39/129/6
f 40/136/10 38/135/10 43/134/10 44/133/10
f 43/139/2 48/138/2 59/137/2
f 61/141/2 38/140/2 43/139/2 59/137/2
f 38/140/2 61/141/2 52/142/2 37/103/2
f 44/145/4 40/144/4 39/143/4
f 34/150/11 45/149/11 46/148/11 36/147/11
f 43/152/12 38/118/12 40/119/12 44/151/12
f 64/153/2 53/112/2 46/113/2
f 62/156/2 36/155/2 35/105/2 47/106/2
f 62/156/2 64/153/2 46/113/2 36/155/2
f 62/156/2 53/112/2 64/153/2
f 53/112/2 62/156/2 63/158/2 51/116/2
f 41/159/4 44/145/4 39/143/4
f 45/164/13 41/163/13 42/162/13 46/161/13
f 44/168/14 41/167/14 42/166/14 43/165/14
f 50/102/2 37/103/2 52/142/2
f 42/108/2 49/109/2 66/170/2
f 65/172/2 48/138/2 43/139/2
f 42/108/2 66/170/2 65/172/2 43/139/2
f 45/121/4 41/159/4 39/143/4 33/123/4
f 44/176/15 43/175/15 42/174/15 41/173/15
f 46/180/16 42/179/16 41/178/16 45/177/16
f 68/184/17 47/183/3 56/182/3 67/181/3
f 47/183/3 68/184/17 62/185/18
f 69/190/1 52/189/1 61/188/1 70/187/1
f 50/192/1 69/190/1 55/191/1
f 52/189/1 69/190/1 50/192/1
f 67/196/2 73/195/2 68/194/2
f 60/201/19 51/200/20 68/199/17 73/198/19
f 68/199/17 51/200/20 63/202/21
f 63/202/21 62/204/18 68/199/17
f 67/208/5 56/207/5 55/206/5 69/205/5
f 48/211/23 59/210/22 72/209/22
f 72/216/22 59/215/22 61/214/24 70/213/24
f 72/219/2 69/218/2 70/217/2
f 73/223/27 53/222/26 60/221/25
f 53/222/26 73/223/27 64/225/28
f 62/228/29 64/225/28 73/223/27 68/227/29
f 61/232/30 59/231/32 72/230/31 70/229/30
f 72/230/31 48/234/34 65/233/33
f 48/234/34 72/230/31 59/231/32
f 71/236/2 69/218/2 72/219/2
f 58/240/35 54/239/36 71/238/35
f 60/243/37 58/240/35 71/238/35 73/242/37
f 71/246/40 74/245/39 54/244/38
f 74/245/39 71/246/40 66/248/41
f 65/253/42 66/252/41 71/251/40 72/250/42
f 71/236/2 73/195/2 67/196/2 69/218/2
f 71/236/43 66/255/43 65/254/43 72/219/43
f 54/244/44 57/257/45 73/256/45 71/246/44
f 57/257/45 60/258/46 73/256/45
f 77/263/47 78/262/48 76/261/48 75/260/47
f 77/267/49 79/266/49 94/265/2 92/264/2
f 93/269/2 94/265/2 79/266/49 80/268/50
f 78/271/50 77/267/49 92/264/2 91/270/2
f 91/270/2 93/269/2 80/268/50 78/271/50
f 81/275/51 82/274/52 80/273/52 79/272/51
f 75/279/53 76/278/54 82/277/54 81/276/53
f 84/283/5 85/282/5 86/281/5 83/280/5
f 89/287/6 88/286/6 87/285/6 90/284/6
f 86/289/55 82/277/54 76/278/54 83/288/55
f 85/291/56 80/273/52 82/274/52 86/290/56
f 84/293/57 78/271/50 80/268/50 85/292/57
f 83/295/58 76/261/48 78/262/48 84/294/58
f 87/297/59 75/279/53 81/276/53 90/296/59
f 88/299/60 77/263/47 75/260/47 87/298/60
f 89/301/61 79/266/49 77/267/49 88/300/61
f 90/303/62 81/275/51 79/272/51 89/302/62
f 96/307/3 91/306/3 99/305/3 95/304/3
f 97/311/1 94/310/1 100/309/1 98/308/1
f 96/315/2 95/314/2 97/313/2 98/312/2
f 98/319/6 100/318/6 91/317/6 96/316/6
f 95/323/5 99/322/5 94/321/5 97/320/5
f 118/327/1 114/326/1 113/325/1 119/324/1
f 117/331/2 115/330/2 114/329/2 118/328/2
f 120/335/3 116/334/3 115/333/3 117/332/3
f 119/339/4 113/338/4 116/337/4 120/336/4
f 104/343/66 106/342/65 108/341/64 102/340/63
f 105/347/6 103/346/6 101/345/6 107/344/6
f 110/351/2 103/350/2 105/349/2 109/348/2
f 111/355/1 101/354/1 103/353/1 110/352/1
f 112/359/4 107/358/4 101/357/4 111/356/4
f 109/363/3 105/362/3 107/361/3 112/360/3
f 114/365/68 104/343/66 102/340/63 113/364/67
f 119/369/70 111/368/70 110/367/69 118/366/69
f 115/370/71 106/342/65 104/343/66 114/365/68
f 118/366/69 110/367/69 109/372/72 117/371/72
f 116/373/73 108/341/64 106/342/65 115/370/71
f 117/371/72 109/372/72 112/375/74 120/374/74
f 113/364/67 102/340/63 108/341/64 116/373/73
f 120/374/74 112/375/74 111/368/70 119/369/70

