%YAML 1.1
%TAG !u! tag:unity3d.com,2011:
--- !u!1001 &3712690197700922907
PrefabInstance:
  m_ObjectHideFlags: 0
  serializedVersion: 2
  m_Modification:
    m_TransformParent: {fileID: 0}
    m_Modifications:
    - target: {fileID: -4216859302048453862, guid: 1eff4bbe293af6e4ebd742878d1ba54a,
        type: 3}
      propertyPath: m_LocalPosition.x
      value: -0
      objectReference: {fileID: 0}
    - target: {fileID: -4216859302048453862, guid: 1eff4bbe293af6e4ebd742878d1ba54a,
        type: 3}
      propertyPath: m_LocalPosition.y
      value: 0
      objectReference: {fileID: 0}
    - target: {fileID: -4216859302048453862, guid: 1eff4bbe293af6e4ebd742878d1ba54a,
        type: 3}
      propertyPath: m_LocalPosition.z
      value: 103.7
      objectReference: {fileID: 0}
    - target: {fileID: -4216859302048453862, guid: 1eff4bbe293af6e4ebd742878d1ba54a,
        type: 3}
      propertyPath: m_LocalRotation.x
      value: 0
      objectReference: {fileID: 0}
    - target: {fileID: -4216859302048453862, guid: 1eff4bbe293af6e4ebd742878d1ba54a,
        type: 3}
      propertyPath: m_LocalRotation.y
      value: -0
      objectReference: {fileID: 0}
    - target: {fileID: -4216859302048453862, guid: 1eff4bbe293af6e4ebd742878d1ba54a,
        type: 3}
      propertyPath: m_LocalRotation.z
      value: -0
      objectReference: {fileID: 0}
    - target: {fileID: -4216859302048453862, guid: 1eff4bbe293af6e4ebd742878d1ba54a,
        type: 3}
      propertyPath: m_LocalRotation.w
      value: 1
      objectReference: {fileID: 0}
    - target: {fileID: -4216859302048453862, guid: 1eff4bbe293af6e4ebd742878d1ba54a,
        type: 3}
      propertyPath: m_RootOrder
      value: 0
      objectReference: {fileID: 0}
    - target: {fileID: -4216859302048453862, guid: 1eff4bbe293af6e4ebd742878d1ba54a,
        type: 3}
      propertyPath: m_LocalEulerAnglesHint.x
      value: 0
      objectReference: {fileID: 0}
    - target: {fileID: -4216859302048453862, guid: 1eff4bbe293af6e4ebd742878d1ba54a,
        type: 3}
      propertyPath: m_LocalEulerAnglesHint.y
      value: 0
      objectReference: {fileID: 0}
    - target: {fileID: -4216859302048453862, guid: 1eff4bbe293af6e4ebd742878d1ba54a,
        type: 3}
      propertyPath: m_LocalEulerAnglesHint.z
      value: 0
      objectReference: {fileID: 0}
    - target: {fileID: -4216859302048453862, guid: 1eff4bbe293af6e4ebd742878d1ba54a,
        type: 3}
      propertyPath: m_LocalScale.x
      value: 0.1
      objectReference: {fileID: 0}
    - target: {fileID: -4216859302048453862, guid: 1eff4bbe293af6e4ebd742878d1ba54a,
        type: 3}
      propertyPath: m_LocalScale.y
      value: 0.1
      objectReference: {fileID: 0}
    - target: {fileID: -4216859302048453862, guid: 1eff4bbe293af6e4ebd742878d1ba54a,
        type: 3}
      propertyPath: m_LocalScale.z
      value: 0.1
      objectReference: {fileID: 0}
    - target: {fileID: -2416733968201007103, guid: 1eff4bbe293af6e4ebd742878d1ba54a,
        type: 3}
      propertyPath: m_Materials.Array.data[0]
      value: 
      objectReference: {fileID: 2100000, guid: cd75ee4b6421e914da8979f68e0a94a0, type: 2}
    - target: {fileID: -927199367670048503, guid: 1eff4bbe293af6e4ebd742878d1ba54a,
        type: 3}
      propertyPath: m_Name
      value: Huis-7
      objectReference: {fileID: 0}
    m_RemovedComponents: []
  m_SourcePrefab: {fileID: 100100000, guid: 1eff4bbe293af6e4ebd742878d1ba54a, type: 3}
