# WaveFront *.obj file (generated by CINEMA 4D)

mtllib ./Huis5.mtl

v -100 -458.18704223632812 250.92437744140625
v -100 458.18704223632812 250.92437744140625
v 100 -458.18704223632812 250.92437744140625
v 34.21845245361328 458.18704223632812 250.92437744140625
v 100 -458.18704223632812 -250.92437744140625
v 34.21845245361328 458.18704223632812 -250.92437744140625
v -100 -458.18704223632812 -250.92437744140625
v -100 458.18704223632812 -250.92437744140625
v -100 259.62796020507812 250.92437744140625
v -100 259.62796020507812 -250.92437744140625
v -100 -135.65969848632812 250.92437744140625
v -100 -135.65969848632812 -250.92437744140625
v 86.40793609619141 -135.65969848632812 -250.92437744140625
v 100 246.035888671875 -250.92437744140625
v 100 -122.067626953125 -250.92437744140625
v 100 -122.067626953125 250.92437744140625
v 100 246.035888671875 250.92437744140625
v 86.40793609619141 259.62796020507812 -250.92437744140625
v 100 273.22003173828125 250.92437744140625
v 100 273.22003173828125 -250.92437744140625
v 86.40793609619141 259.62796020507812 250.92437744140625
v 100 -149.25175476074219 -250.92437744140625
v 100 -149.25175476074219 250.92437744140625
v 86.40793609619141 -135.65969848632812 250.92437744140625
v 143.16844177246094 246.035888671875 -250.92437744140625
v 143.16844177246094 246.035888671875 250.92437744140625
v 154.381591796875 273.22003173828125 250.92437744140625
v 154.381591796875 273.22003173828125 -250.92437744140625
v 151.9464111328125 -122.067626953125 -250.92437744140625
v 151.9464111328125 -122.067626953125 250.92437744140625
v 140.73326110839844 -149.25175476074219 -250.92437744140625
v 140.73326110839844 -149.25175476074219 250.92437744140625
v 143.16844177246094 246.035888671875 191.44393920898438
v 154.381591796875 273.22003173828125 191.44393920898438
v 100 273.22003173828125 191.44393920898438
v 34.21845245361328 458.18704223632812 191.44393920898438
v -100 458.18704223632812 191.44393920898438
v -100 259.62796020507812 191.44393920898438
v -100 -135.65969848632812 191.44393920898438
v -100 -458.18704223632812 191.44393920898438
v 100 -458.18704223632812 191.44393920898438
v 100 -149.25175476074219 191.44393920898438
v 140.73326110839844 -149.25175476074219 191.44393920898438
v 151.9464111328125 -122.067626953125 191.44393920898438
v 100 -122.067626953125 191.44393920898438
v 100 246.035888671875 191.44393920898438
v 143.16844177246094 246.035888671875 -192.95840454101562
v 154.381591796875 273.22003173828125 -192.95840454101562
v 100 273.22003173828125 -192.95840454101562
v 34.21845245361328 458.18704223632812 -192.95840454101562
v -100 458.18704223632812 -192.95840454101562
v -100 259.62796020507812 -192.95840454101562
v -100 -135.65969848632812 -192.95840454101562
v -100 -458.18704223632812 -192.95840454101562
v 100 -458.18704223632812 -192.95840454101562
v 100 -149.25175476074219 -192.95840454101562
v 140.73326110839844 -149.25175476074219 -192.95840454101562
v 151.9464111328125 -122.067626953125 -192.95840454101562
v 100 -122.067626953125 -192.95840454101562
v 100 246.035888671875 -192.95840454101562
v 143.16844177246094 246.035888671875 42.39930725097656
v 154.381591796875 273.22003173828125 42.39930725097656
v 100 273.22003173828125 42.39930725097656
v 34.21845245361328 458.18704223632812 42.39930725097656
v -100 458.18704223632812 42.39930725097656
v -100 259.62796020507812 42.39930725097656
v -100 -135.65969848632812 42.39930725097656
v -100 -458.18704223632812 42.39930725097656
v 100 -458.18704223632812 42.39930725097656
v 100 -149.25175476074219 42.39930725097656
v 140.73326110839844 -149.25175476074219 42.39930725097656
v 151.9464111328125 -122.067626953125 42.39930725097656
v 100 -122.067626953125 42.39930725097656
v 100 246.035888671875 42.39930725097656
v 143.16844177246094 246.035888671875 -57.71433258056641
v 154.381591796875 273.22003173828125 -57.71433258056641
v 100 273.22003173828125 -57.71433258056641
v 34.21845245361328 458.18704223632812 -57.71433258056641
v -100 458.18704223632812 -57.71433258056641
v -100 259.62796020507812 -57.71433258056641
v -100 -135.65969848632812 -57.71433258056641
v -100 -458.18704223632812 -57.71433258056641
v 100 -458.18704223632812 -57.71433258056641
v 100 -149.25175476074219 -57.71433258056641
v 140.73326110839844 -149.25175476074219 -57.71433258056641
v 151.9464111328125 -122.067626953125 -57.71433258056641
v 100 -122.067626953125 -57.71433258056641
v 100 246.035888671875 -57.71433258056641
v 143.16844177246094 246.035888671875 82.61508941650391
v 154.381591796875 273.22003173828125 82.61508941650391
v 100 273.22003173828125 82.61508941650391
v 34.21845245361328 458.18704223632812 82.61508941650391
v -100 458.18704223632812 82.61508941650391
v -100 259.62796020507812 82.61508941650391
v -100 -135.65969848632812 82.61508941650391
v -100 -458.18704223632812 82.61508941650391
v 100 -458.18704223632812 82.61508941650391
v 100 -149.25175476074219 82.61508941650391
v 140.73326110839844 -149.25175476074219 82.61508941650391
v 151.9464111328125 -122.067626953125 82.61508941650391
v 100 -122.067626953125 82.61508941650391
v 100 246.035888671875 82.61508941650391
v 143.16844177246094 246.035888671875 -95.71379089355469
v 154.381591796875 273.22003173828125 -95.71379089355469
v 100 273.22003173828125 -95.71379089355469
v 34.21845245361328 458.18704223632812 -95.71379089355469
v -100 458.18704223632812 -95.71379089355469
v -100 259.62796020507812 -95.71379089355469
v -100 -135.65969848632812 -95.71379089355469
v -100 -458.18704223632812 -95.71379089355469
v 100 -458.18704223632812 -95.71379089355469
v 100 -149.25175476074219 -95.71379089355469
v 140.73326110839844 -149.25175476074219 -95.71379089355469
v 151.9464111328125 -122.067626953125 -95.71379089355469
v 100 -122.067626953125 -95.71379089355469
v 100 246.035888671875 -95.71379089355469
v 140.35501098632812 246.035888671875 -250.92437744140625
v 140.35501098632812 -122.067626953125 -250.92437744140625
v 140.35501098632812 -122.067626953125 -192.95840454101562
v 140.35501098632812 246.035888671875 -192.95840454101562
v 140.35501098632812 -458.18704223632812 -250.92437744140625
v 140.35501098632812 -149.25175476074219 -250.92437744140625
v 140.35501098632812 -458.18704223632812 -192.95840454101562
v 140.35501098632812 -149.25175476074219 -192.95840454101562
v 140.35501098632812 -458.18704223632812 250.92437744140625
v 140.35501098632812 -149.25175476074219 250.92437744140625
v 140.35501098632812 -458.18704223632812 191.44393920898438
v 140.35501098632812 -149.25175476074219 191.44393920898438
v 140.35501098632812 -122.067626953125 250.92437744140625
v 140.35501098632812 246.035888671875 250.92437744140625
v 140.35501098632812 -122.067626953125 191.44393920898438
v 140.35501098632812 246.035888671875 191.44393920898438
v 140.35501098632812 -458.18704223632812 42.39930725097656
v 140.35501098632812 -149.25175476074219 42.39930725097656
v 140.35501098632812 -458.18704223632812 82.61508941650391
v 140.35501098632812 -149.25175476074219 82.61508941650391
v 140.35501098632812 -122.067626953125 42.39930725097656
v 140.35501098632812 246.035888671875 42.39930725097656
v 140.35501098632812 -122.067626953125 82.61508941650391
v 140.35501098632812 246.035888671875 82.61508941650391
v 140.35501098632812 -458.18704223632812 -57.71433258056641
v 140.35501098632812 -149.25175476074219 -57.71433258056641
v 140.35501098632812 -458.18704223632812 -95.71379089355469
v 140.35501098632812 -149.25175476074219 -95.71379089355469
v 140.35501098632812 -122.067626953125 -57.71433258056641
v 140.35501098632812 246.035888671875 -57.71433258056641
v 140.35501098632812 -122.067626953125 -95.71379089355469
v 140.35501098632812 246.035888671875 -95.71379089355469
# 148 vertices

vn 0 0 1
vn 0 0 0
vn 0 0 -1
vn 0.94218975305557 0.33507975935936 0
vn 0.94218975305557 0.33507975935936 0
vn -1 0 0
vn 0 1 0
vn 0 -1 0
vn 1 0 0
vn 0.92444229125977 -0.38132193684578 0
vn 0.92444229125977 -0.3813219666481 0
vn 0.92444223165512 -0.38132211565971 0
vn 0 0 -1
vn 0 0 1
vn 0.94218975305557 0.33507978916168 0
vn 0.94218975305557 0.33507975935936 0
vn 0.92444223165512 -0.38132211565971 0
# 17 normals

vt 0.31306374073029 0.87760436534882 0
vt 0.31306374073029 0.99213933944702 0
vt 0.39048504829407 0.99213933944702 0
vt 0.42058953642845 0.87760436534882 0
vt 0.42842984199524 0.88544470071793 0
vt 0.3595195710659 0.93483227491379 0
vt 0.62225526571274 0.99213933944702 0
vt 0.51472944021225 0.87760436534882 0
vt 0.50688910484314 0.88544470071793 0
vt 0.54483395814896 0.99213933944702 0
vt 0.62225526571274 0.87760436534882 0
vt 0.54748517274857 0.93679362535477 0
vt 0.42842984199524 0.86976408958435 0
vt 0.35951939225197 0.93483233451843 0
vt 0.42842984199524 0.65743070840836 0
vt 0.31306374073029 0.64959037303925 0
vt 0.42058953642845 0.64959037303925 0
vt 0.35951927304268 0.93483209609985 0
vt 0.50688910484314 0.86976408958435 0
vt 0.62225526571274 0.64959037303925 0
vt 0.50688910484314 0.65743070840836 0
vt 0.51472944021225 0.64959037303925 0
vt 0.54748511314392 0.93679338693619 0
vt 0.42842984199524 0.64175003767014 0
vt 0.359519302845 0.93483209609985 0
vt 0.42842984199524 0.46354675292969 0
vt 0.31306374073029 0.46354675292969 0
vt 0.50688910484314 0.64175003767014 0
vt 0.62225526571274 0.46354675292969 0
vt 0.50688910484314 0.46354675292969 0
vt 0.54748511314392 0.9367932677269 0
vt 0.26390585303307 0.44782543182373 0
vt 0.29734238982201 0.44782543182373 0
vt 0.29734238982201 0.34113073348999 0
vt 0.26390585303307 0.34113073348999 0
vt 0.00786066893488 0.87760436534882 0
vt 0.00786066893488 0.99213933944702 0
vt 0.04129721596837 0.99213933944702 0
vt 0.04129721596837 0.87760436534882 0
vt 0.6379765868187 0.65349972248077 0
vt 0.6379765868187 0.68693625926971 0
vt 0.71539789438248 0.68693625926971 0
vt 0.71539789438248 0.65349972248077 0
vt 0.6379765868187 0.70265763998032 0
vt 0.6379765868187 0.73609417676926 0
vt 0.75334268808365 0.73609417676926 0
vt 0.75334268808365 0.70265763998032 0
vt 0.09132868796587 0.32540941238403 0
vt 0.09132868796587 0.11307597160339 0
vt 0.05789214372635 0.11307597160339 0
vt 0.05789214372635 0.32540941238403 0
vt 0.04129721596837 0.64959037303925 0
vt 0.00786066893488 0.64959037303925 0
vt 0.19051805138588 0.32540941238403 0
vt 0.19051805138588 0.14720606803894 0
vt 0.15708149969578 0.14720606803894 0
vt 0.15708149969578 0.32540941238403 0
vt 0.04129721596837 0.46354675292969 0
vt 0.00786066893488 0.46354675292969 0
vt 0.57371979951859 0.16015863418579 0
vt 0.57371979951859 0.14447796344757 0
vt 0.54028326272964 0.14447796344757 0
vt 0.54028326272964 0.16015863418579 0
vt 0.57371979951859 0.12875664234161 0
vt 0.57371979951859 0.11307597160339 0
vt 0.54028326272964 0.11307597160339 0
vt 0.54028326272964 0.12875664234161 0
vt 0.5474853515625 0.93679338693619 0
vt 0.3595195710659 0.93483209609985 0
vt 0.47552016377449 0.88544470071793 0
vt 0.48198825120926 0.86976408958435 0
vt 0.87658035755157 0.50873297452927 0
vt 0.85167950391769 0.50873297452927 0
vt 0.85167950391769 0.54216951131821 0
vt 0.87658035755157 0.54216951131821 0
vt 0.45333072543144 0.86976408958435 0
vt 0.45979881286621 0.88544470071793 0
vt 0.80458921194077 0.76477813720703 0
vt 0.80458921194077 0.79821467399597 0
vt 0.83595818281174 0.79821467399597 0
vt 0.83595818281174 0.76477813720703 0
vt 0.47692483663559 0.65743070840836 0
vt 0.48339292407036 0.64175003767014 0
vt 0.87658035755157 0.2035299539566 0
vt 0.85308420658112 0.2035299539566 0
vt 0.85308420658112 0.23696649074554 0
vt 0.87658035755157 0.23696649074554 0
vt 0.45192605257034 0.64175003767014 0
vt 0.45839414000511 0.65743070840836 0
vt 0.80599385499954 0.45957505702972 0
vt 0.80599385499954 0.49301159381866 0
vt 0.83595818281174 0.49301159381866 0
vt 0.83595818281174 0.45957505702972 0
vt 0.31854820251465 0.14447796344757 0
vt 0.28423807024956 0.14447796344757 0
vt 0.28423807024956 0.16015863418579 0
vt 0.31854820251465 0.16015863418579 0
vt 0.83595818281174 0.54304307699203 0
vt 0.83595818281174 0.50873297452927 0
vt 0.80458921194077 0.50873297452927 0
vt 0.80458921194077 0.54304307699203 0
vt 0.04217080771923 0.34113073348999 0
vt 0.00786066893488 0.34113073348999 0
vt 0.00786066893488 0.44782543182373 0
vt 0.04217080771923 0.44782543182373 0
vt 0.71539789438248 0.43176472187042 0
vt 0.71539789438248 0.39745461940765 0
vt 0.6379765868187 0.39745461940765 0
vt 0.6379765868187 0.43176472187042 0
vt 0.26303225755692 0.99213933944702 0
vt 0.29734238982201 0.99213933944702 0
vt 0.29734238982201 0.87760436534882 0
vt 0.26303225755692 0.87760436534882 0
vt 0.29734238982201 0.64959037303925 0
vt 0.26303225755692 0.64959037303925 0
vt 0.29734238982201 0.46354675292969 0
vt 0.26303225755692 0.46354675292969 0
vt 0.6379765868187 0.95782917737961 0
vt 0.6379765868187 0.99213933944702 0
vt 0.75334268808365 0.99213933944702 0
vt 0.75334268808365 0.95782917737961 0
vt 0.14136016368866 0.14720606803894 0
vt 0.10705003142357 0.14720606803894 0
vt 0.10705003142357 0.32540941238403 0
vt 0.14136016368866 0.32540941238403 0
vt 0.85308420658112 0.4587014913559 0
vt 0.85308420658112 0.49301159381866 0
vt 0.87658035755157 0.49301159381866 0
vt 0.87658035755157 0.4587014913559 0
vt 0.31854820251465 0.11307597160339 0
vt 0.28423807024956 0.11307597160339 0
vt 0.28423807024956 0.12875664234161 0
vt 0.31854820251465 0.12875664234161 0
vt 0.83595818281174 0.23784005641937 0
vt 0.83595818281174 0.2035299539566 0
vt 0.80599385499954 0.2035299539566 0
vt 0.80599385499954 0.23784005641937 0
vt 0.04217080771923 0.11307597160339 0
vt 0.00786066893488 0.11307597160339 0
vt 0.00786066893488 0.32540941238403 0
vt 0.04217080771923 0.32540941238403 0
vt 0.85167950391769 0.7639045715332 0
vt 0.85167950391769 0.79821467399597 0
vt 0.87658035755157 0.79821467399597 0
vt 0.87658035755157 0.7639045715332 0
vt 0.4841895699501 0.14447796344757 0
vt 0.4841895699501 0.16015863418579 0
vt 0.83595818281174 0.70868444442749 0
vt 0.80458921194077 0.70868444442749 0
vt 0.20781217515469 0.34113073348999 0
vt 0.20781217515469 0.44782543182373 0
vt 0.71539789438248 0.59740608930588 0
vt 0.6379765868187 0.59740608930588 0
vt 0.09739089012146 0.99213933944702 0
vt 0.09739089012146 0.87760436534882 0
vt 0.09739089012146 0.64959037303925 0
vt 0.09739089012146 0.46354675292969 0
vt 0.6379765868187 0.79218780994415 0
vt 0.75334268808365 0.79218780994415 0
vt 0.78886783123016 0.31480824947357 0
vt 0.73277419805527 0.31480824947357 0
vt 0.73277419805527 0.49301159381866 0
vt 0.78886783123016 0.49301159381866 0
vt 0.85308420658112 0.2930600643158 0
vt 0.87658035755157 0.2930600643158 0
vt 0.4841895699501 0.11307597160339 0
vt 0.4841895699501 0.12875664234161 0
vt 0.83595818281174 0.40348136425018 0
vt 0.80599385499954 0.40348136425018 0
vt 0.52112448215485 0.23549199104309 0
vt 0.46503081917763 0.23549199104309 0
vt 0.46503081917763 0.44782543182373 0
vt 0.52112448215485 0.44782543182373 0
vt 0.85167950391769 0.5982631444931 0
vt 0.87658035755157 0.5982631444931 0
vt 0.40452170372009 0.14447796344757 0
vt 0.38132402300835 0.14447796344757 0
vt 0.38132402300835 0.16015863418579 0
vt 0.40452170372009 0.16015863418579 0
vt 0.83595818281174 0.62901657819748 0
vt 0.83595818281174 0.60581886768341 0
vt 0.80458921194077 0.60581886768341 0
vt 0.80458921194077 0.62901657819748 0
vt 0.12814430892467 0.34113073348999 0
vt 0.10494662076235 0.34113073348999 0
vt 0.10494662076235 0.44782543182373 0
vt 0.12814430892467 0.44782543182373 0
vt 0.71539789438248 0.51773822307587 0
vt 0.71539789438248 0.49454057216644 0
vt 0.6379765868187 0.49454057216644 0
vt 0.6379765868187 0.51773822307587 0
vt 0.17705875635147 0.99213933944702 0
vt 0.20025645196438 0.99213933944702 0
vt 0.20025645196438 0.87760436534882 0
vt 0.17705875635147 0.87760436534882 0
vt 0.20025645196438 0.64959037303925 0
vt 0.17705875635147 0.64959037303925 0
vt 0.20025645196438 0.46354675292969 0
vt 0.17705875635147 0.46354675292969 0
vt 0.6379765868187 0.87185573577881 0
vt 0.6379765868187 0.89505338668823 0
vt 0.75334268808365 0.89505338668823 0
vt 0.75334268808365 0.87185573577881 0
vt 0.79836350679398 0.00960516929626 0
vt 0.77516579627991 0.00960516929626 0
vt 0.77516579627991 0.18780851364136 0
vt 0.79836350679398 0.18780851364136 0
vt 0.85308420658112 0.37272799015045 0
vt 0.85308420658112 0.39592564105988 0
vt 0.87658035755157 0.39592564105988 0
vt 0.87658035755157 0.37272799015045 0
vt 0.40452170372009 0.11307597160339 0
vt 0.38132402300835 0.11307597160339 0
vt 0.38132402300835 0.12875664234161 0
vt 0.40452170372009 0.12875664234161 0
vt 0.83595818281174 0.32381355762482 0
vt 0.83595818281174 0.3006157875061 0
vt 0.80599385499954 0.3006157875061 0
vt 0.80599385499954 0.32381355762482 0
vt 0.9154993891716 0.58588129281998 0
vt 0.89230167865753 0.58588129281998 0
vt 0.89230167865753 0.79821467399597 0
vt 0.9154993891716 0.79821467399597 0
vt 0.85167950391769 0.67793101072311 0
vt 0.85167950391769 0.70112872123718 0
vt 0.87658035755157 0.70112872123718 0
vt 0.87658035755157 0.67793101072311 0
vt 0.46227031946182 0.14447796344757 0
vt 0.46227031946182 0.16015863418579 0
vt 0.83595818281174 0.68676519393921 0
vt 0.80458921194077 0.68676519393921 0
vt 0.1858929246664 0.34113073348999 0
vt 0.1858929246664 0.44782543182373 0
vt 0.71539789438248 0.5754868388176 0
vt 0.6379765868187 0.5754868388176 0
vt 0.11931014060974 0.99213933944702 0
vt 0.11931014060974 0.87760436534882 0
vt 0.11931014060974 0.64959037303925 0
vt 0.11931014060974 0.46354675292969 0
vt 0.6379765868187 0.81410706043243 0
vt 0.75334268808365 0.81410706043243 0
vt 0.78886783123016 0.50873297452927 0
vt 0.73111921548843 0.50873297452927 0
vt 0.73111921548843 0.68693625926971 0
vt 0.78886783123016 0.68693625926971 0
vt 0.85308420658112 0.31497931480408 0
vt 0.87658035755157 0.31497931480408 0
vt 0.46227031946182 0.11307597160339 0
vt 0.46227031946182 0.12875664234161 0
vt 0.83595818281174 0.3815621137619 0
vt 0.80599385499954 0.3815621137619 0
vt 0.44930949807167 0.23549199104309 0
vt 0.39156088232994 0.23549199104309 0
vt 0.39156088232994 0.44782543182373 0
vt 0.44930949807167 0.44782543182373 0
vt 0.85167950391769 0.62018239498138 0
vt 0.87658035755157 0.62018239498138 0
vt 0.59962165355682 0.26962208747864 0
vt 0.53684586286545 0.26962208747864 0
vt 0.53684586286545 0.44782543182373 0
vt 0.59962165355682 0.44782543182373 0
vt 0.37583953142166 0.23549199104309 0
vt 0.31306374073029 0.23549199104309 0
vt 0.31306374073029 0.44782543182373 0
vt 0.37583953142166 0.44782543182373 0
vt 0.99213933944702 0.62001132965088 0
vt 0.97022008895874 0.62001132965088 0
vt 0.97022008895874 0.79821467399597 0
vt 0.99213933944702 0.79821467399597 0
vt 0.9154993891716 0.35782659053802 0
vt 0.89358013868332 0.35782659053802 0
vt 0.89358013868332 0.57015997171402 0
vt 0.9154993891716 0.57015997171402 0
vt 0.48361113667488 0.86976408958435 0
vt 0.48361113667488 0.65743070840836 0
vt 0.37583953142166 0.18633413314819 0
vt 0.35256153345108 0.18633413314819 0
vt 0.35256153345108 0.21977066993713 0
vt 0.37583953142166 0.21977066993713 0
vt 0.22951738536358 0.11307597160339 0
vt 0.206239387393 0.11307597160339 0
vt 0.206239387393 0.32540941238403 0
vt 0.22951738536358 0.32540941238403 0
vt 0.59912317991257 0.22046411037445 0
vt 0.57584518194199 0.22046411037445 0
vt 0.57584518194199 0.25390076637268 0
vt 0.59912317991257 0.25390076637268 0
vt 0.48361113667488 0.64175003767014 0
vt 0.48361113667488 0.46354675292969 0
vt 0.77662068605423 0.70265763998032 0
vt 0.77662068605423 0.73609417676926 0
vt 0.9168581366539 0.16390192508698 0
vt 0.89358013868332 0.16390192508698 0
vt 0.89358013868332 0.34210526943207 0
vt 0.9168581366539 0.34210526943207 0
vt 0.56012386083603 0.22046411037445 0
vt 0.53684586286545 0.22046411037445 0
vt 0.53684586286545 0.25390076637268 0
vt 0.56012386083603 0.25390076637268 0
vt 0.77662068605423 0.95782917737961 0
vt 0.77662068605423 0.99213933944702 0
vt 0.45170786976814 0.46354675292969 0
vt 0.45170786976814 0.64175003767014 0
vt 0.63905417919159 0.31480824947357 0
vt 0.61577618122101 0.31480824947357 0
vt 0.61577618122101 0.34911847114563 0
vt 0.63905417919159 0.34911847114563 0
vt 0.9312207698822 0.60429000854492 0
vt 0.95449876785278 0.60429000854492 0
vt 0.95449876785278 0.42608666419983 0
vt 0.9312207698822 0.42608666419983 0
vt 0.67805349826813 0.31480824947357 0
vt 0.65477550029755 0.31480824947357 0
vt 0.65477550029755 0.34911847114563 0
vt 0.67805349826813 0.34911847114563 0
vt 0.45170786976814 0.65743070840836 0
vt 0.45170786976814 0.86976408958435 0
vt 0.71705281734467 0.31480824947357 0
vt 0.69377481937408 0.31480824947357 0
vt 0.69377481937408 0.34911847114563 0
vt 0.71705281734467 0.34911847114563 0
vt 0.61577618122101 0.29908692836761 0
vt 0.63905417919159 0.29908692836761 0
vt 0.63905417919159 0.08675360679626 0
vt 0.61577618122101 0.08675360679626 0
vt 0.77662068605423 0.87185573577881 0
vt 0.77662068605423 0.89505338668823 0
vt 0.95449876785278 0.62001132965088 0
vt 0.9312207698822 0.62001132965088 0
vt 0.9312207698822 0.79821467399597 0
vt 0.95449876785278 0.79821467399597 0
vt 0.45383822917938 0.19657301902771 0
vt 0.4305602312088 0.19657301902771 0
vt 0.4305602312088 0.21977066993713 0
vt 0.45383822917938 0.21977066993713 0
vt 0.85308420658112 0.18780851364136 0
vt 0.8763622045517 0.18780851364136 0
vt 0.8763622045517 0.00960516929626 0
vt 0.85308420658112 0.00960516929626 0
vt 0.33684021234512 0.19657301902771 0
vt 0.31356221437454 0.19657301902771 0
vt 0.31356221437454 0.21977066993713 0
vt 0.33684021234512 0.21977066993713 0
vt 0.67805349826813 0.08675360679626 0
vt 0.65477550029755 0.08675360679626 0
vt 0.65477550029755 0.29908692836761 0
vt 0.67805349826813 0.29908692836761 0
vt 0.41483888030052 0.19657301902771 0
vt 0.39156088232994 0.19657301902771 0
vt 0.39156088232994 0.21977066993713 0
vt 0.41483888030052 0.21977066993713 0
vt 0.69377481937408 0.29908692836761 0
vt 0.71705281734467 0.29908692836761 0
vt 0.71705281734467 0.08675360679626 0
vt 0.69377481937408 0.08675360679626 0
vt 0.77662068605423 0.79218780994415 0
vt 0.77662068605423 0.81410706043243 0
vt 0.83736282587051 0.00960516929626 0
vt 0.81408482789993 0.00960516929626 0
vt 0.81408482789993 0.18780851364136 0
vt 0.83736282587051 0.18780851364136 0
vt 0.59912317991257 0.18282353878021 0
vt 0.57584518194199 0.18282353878021 0
vt 0.57584518194199 0.20474278926849 0
vt 0.59912317991257 0.20474278926849 0
vt 0.9325795173645 0.34210526943207 0
vt 0.95585751533508 0.34210526943207 0
vt 0.95585751533508 0.16390192508698 0
vt 0.9325795173645 0.16390192508698 0
vt 0.49283757805824 0.19657301902771 0
vt 0.46955958008766 0.19657301902771 0
vt 0.46955958008766 0.21849226951599 0
vt 0.49283757805824 0.21849226951599 0
vt 0.26851671934128 0.11307597160339 0
vt 0.2452387213707 0.11307597160339 0
vt 0.2452387213707 0.32540941238403 0
vt 0.26851671934128 0.32540941238403 0
vt 0.56012386083603 0.18282353878021 0
vt 0.53684586286545 0.18282353878021 0
vt 0.53684586286545 0.20474278926849 0
vt 0.56012386083603 0.20474278926849 0
vt 0.73277419805527 0.29908692836761 0
vt 0.75605219602585 0.29908692836761 0
vt 0.75605219602585 0.08675360679626 0
vt 0.73277419805527 0.08675360679626 0
# 385 texture coordinates

o House_5
usemtl default
f 21/4/1 19/5/1 4/3/1 2/2/1 9/1/1
f 10/12/2 8/7/3 6/10/3 20/9/3 18/8/3
f 9/14/2 11/16/1 24/17/1 16/15/1 17/13/1 21/4/1
f 18/23/2 14/19/3 15/21/3 13/22/3 12/20/3 10/11/3
f 11/25/2 1/27/1 3/26/1 23/24/1 24/17/1
f 13/31/2 22/28/3 5/30/3 7/29/3 12/20/3
f 49/35/4 20/34/5 6/33/5 50/32/4
f 52/39/6 51/38/6 8/37/6 10/36/6
f 50/43/7 6/42/7 8/41/7 51/40/7
f 5/47/8 55/46/8 54/45/8 7/44/8
f 120/51/9 119/50/9 118/49/9 117/48/9
f 52/39/6 10/36/6 12/53/6 53/52/6
f 124/57/9 123/56/9 121/55/9 122/54/9
f 53/52/6 12/53/6 7/59/6 54/58/6
f 48/63/11 47/62/11 25/61/10 28/60/10
f 58/67/12 57/66/12 31/65/12 29/64/12
f 18/8/13 20/9/3 14/19/3
f 22/28/3 13/22/3 15/21/3
f 24/17/14 23/24/1 16/15/1
f 19/5/1 21/4/1 17/13/1
f 25/71/3 14/19/3 20/9/3 28/70/3
f 47/75/8 60/74/8 14/73/8 25/72/8
f 27/77/1 19/5/1 17/13/1 26/76/1
f 48/81/7 28/80/7 20/79/7 49/78/7
f 31/83/3 22/28/3 15/21/3 29/82/3
f 57/87/8 56/86/8 22/85/8 31/84/8
f 30/89/1 16/15/1 23/24/1 32/88/1
f 58/93/7 29/92/7 15/91/7 59/90/7
f 34/97/10 27/96/10 26/95/10 33/94/10
f 35/101/7 19/100/7 27/99/7 34/98/7
f 36/105/5 4/104/5 19/103/5 35/102/5
f 37/109/7 2/108/7 4/107/7 36/106/7
f 38/113/6 9/112/6 2/111/6 37/110/6
f 39/115/6 11/114/6 9/112/6 38/113/6
f 40/117/6 1/116/6 11/114/6 39/115/6
f 41/121/8 3/120/8 1/119/8 40/118/8
f 128/125/9 126/124/9 125/123/9 127/122/9
f 43/129/8 32/128/8 23/127/8 42/126/8
f 44/133/12 30/132/12 32/131/12 43/130/12
f 45/137/7 16/136/7 30/135/7 44/134/7
f 132/141/9 130/140/9 129/139/9 131/138/9
f 33/145/8 26/144/8 17/143/8 46/142/8
f 48/63/11 104/147/11 103/146/11 47/62/11
f 49/78/7 105/149/7 104/148/7 48/81/7
f 50/32/4 106/151/15 105/150/15 49/35/4
f 51/40/7 107/153/7 106/152/7 50/43/7
f 52/39/6 108/155/6 107/154/6 51/38/6
f 53/52/6 109/156/6 108/155/6 52/39/6
f 54/58/6 110/157/6 109/156/6 53/52/6
f 55/46/8 111/159/8 110/158/8 54/45/8
f 56/163/9 112/162/9 111/161/9 55/160/9
f 57/87/8 113/165/8 112/164/8 56/86/8
f 58/67/12 114/167/12 113/166/12 57/66/12
f 59/90/7 115/169/7 114/168/7 58/93/7
f 60/173/9 116/172/9 115/171/9 59/170/9
f 47/75/8 103/175/8 116/174/8 60/74/8
f 62/179/10 90/178/10 89/177/10 61/176/10
f 63/183/7 91/182/7 90/181/7 62/180/7
f 64/187/16 92/186/16 91/185/16 63/184/16
f 65/191/7 93/190/7 92/189/7 64/188/7
f 66/195/6 94/194/6 93/193/6 65/192/6
f 67/197/6 95/196/6 94/194/6 66/195/6
f 68/199/6 96/198/6 95/196/6 67/197/6
f 69/203/8 97/202/8 96/201/8 68/200/8
f 134/207/9 136/206/9 135/205/9 133/204/9
f 71/211/8 99/210/8 98/209/8 70/208/8
f 72/215/17 100/214/17 99/213/17 71/212/17
f 73/219/7 101/218/7 100/217/7 72/216/7
f 138/223/9 140/222/9 139/221/9 137/220/9
f 61/227/8 89/226/8 102/225/8 74/224/8
f 76/229/11 62/179/10 61/176/10 75/228/11
f 77/231/7 63/183/7 62/180/7 76/230/7
f 78/233/16 64/187/16 63/184/16 77/232/16
f 79/235/7 65/191/7 64/188/7 78/234/7
f 80/237/6 66/195/6 65/192/6 79/236/6
f 81/238/6 67/197/6 66/195/6 80/237/6
f 82/239/6 68/199/6 67/197/6 81/238/6
f 83/241/8 69/203/8 68/200/8 82/240/8
f 84/245/9 70/244/9 69/243/9 83/242/9
f 85/247/8 71/211/8 70/208/8 84/246/8
f 86/249/12 72/215/17 71/212/17 85/248/12
f 87/251/7 73/219/7 72/216/7 86/250/7
f 88/255/9 74/254/9 73/253/9 87/252/9
f 75/257/8 61/227/8 74/224/8 88/256/8
f 90/178/10 34/97/10 33/94/10 89/177/10
f 91/182/7 35/101/7 34/98/7 90/181/7
f 92/186/16 36/105/5 35/102/5 91/185/16
f 93/190/7 37/109/7 36/106/7 92/189/7
f 94/194/6 38/113/6 37/110/6 93/193/6
f 95/196/6 39/115/6 38/113/6 94/194/6
f 96/198/6 40/117/6 39/115/6 95/196/6
f 97/202/8 41/121/8 40/118/8 96/201/8
f 98/261/9 42/260/9 41/259/9 97/258/9
f 99/210/8 43/129/8 42/126/8 98/209/8
f 100/214/17 44/133/12 43/130/12 99/213/17
f 101/218/7 45/137/7 44/134/7 100/217/7
f 102/265/9 46/264/9 45/263/9 101/262/9
f 89/226/8 33/145/8 46/142/8 102/225/8
f 104/147/11 76/229/11 75/228/11 103/146/11
f 105/149/7 77/231/7 76/230/7 104/148/7
f 106/151/15 78/233/16 77/232/16 105/150/15
f 107/153/7 79/235/7 78/234/7 106/152/7
f 108/155/6 80/237/6 79/236/6 107/154/6
f 109/156/6 81/238/6 80/237/6 108/155/6
f 110/157/6 82/239/6 81/238/6 109/156/6
f 111/159/8 83/241/8 82/240/8 110/158/8
f 144/269/9 142/268/9 141/267/9 143/266/9
f 113/165/8 85/247/8 84/246/8 112/164/8
f 114/167/12 86/249/12 85/248/12 113/166/12
f 115/169/7 87/251/7 86/250/7 114/168/7
f 148/273/9 146/272/9 145/271/9 147/270/9
f 103/175/8 75/257/8 88/256/8 116/174/8
f 118/275/3 15/21/3 14/19/3 117/274/3
f 119/279/8 59/278/8 15/277/8 118/276/8
f 120/283/1 60/282/1 59/281/1 119/280/1
f 117/287/7 14/286/7 60/285/7 120/284/7
f 121/289/3 5/30/3 22/28/3 122/288/3
f 123/291/8 55/46/8 5/47/8 121/290/8
f 124/295/1 56/294/1 55/293/1 123/292/1
f 122/299/7 22/298/7 56/297/7 124/296/7
f 125/301/8 3/120/8 41/121/8 127/300/8
f 126/303/1 23/24/1 3/26/1 125/302/1
f 128/307/7 42/306/7 23/305/7 126/304/7
f 127/311/3 41/310/3 42/309/3 128/308/3
f 129/315/8 16/314/8 45/313/8 131/312/8
f 130/317/1 17/13/1 16/15/1 129/316/1
f 132/321/7 46/320/7 17/319/7 130/318/7
f 131/325/3 45/324/3 46/323/3 132/322/3
f 135/327/8 97/202/8 69/203/8 133/326/8
f 136/331/1 98/330/1 97/329/1 135/328/1
f 134/335/7 70/334/7 98/333/7 136/332/7
f 133/339/3 69/338/3 70/337/3 134/336/3
f 139/343/8 101/342/8 73/341/8 137/340/8
f 140/347/1 102/346/1 101/345/1 139/344/1
f 138/351/7 74/350/7 102/349/7 140/348/7
f 137/355/3 73/354/3 74/353/3 138/352/3
f 141/357/8 83/241/8 111/159/8 143/356/8
f 142/361/1 84/360/1 83/359/1 141/358/1
f 144/365/7 112/364/7 84/363/7 142/362/7
f 143/369/3 111/368/3 112/367/3 144/366/3
f 145/373/8 87/372/8 115/371/8 147/370/8
f 146/377/1 88/376/1 87/375/1 145/374/1
f 148/381/7 116/380/7 88/379/7 146/378/7
f 147/385/3 115/384/3 116/383/3 148/382/3

