# WaveFront *.obj file (generated by CINEMA 4D)

mtllib ./Huis-10.mtl

v -242.52487182617188 -153.43798828125 215.94253540039062
v -242.52487182617188 -128.22744750976562 215.94253540039062
v 218.05328369140625 -153.43798828125 215.94253540039062
v 218.05328369140625 -128.22744750976562 215.94253540039062
v 218.05328369140625 -153.43798828125 -215.86787414550781
v 218.05328369140625 -128.22744750976562 -215.86787414550781
v -242.52487182617188 -153.43798828125 -215.86787414550781
v -242.52487182617188 -128.22744750976562 -215.86787414550781
v -242.52487182617188 -145.48513793945312 215.94253540039062
v -12.23579216003418 -128.22744750976562 215.94253540039062
v 218.05328369140625 -145.48513793945312 215.94253540039062
v -12.23579216003418 -153.43798828125 215.94253540039062
v 218.05328369140625 61.77254867553711 0.0373290926218
v 218.05328369140625 -145.48513793945312 -215.86787414550781
v 218.05328369140625 -153.43798828125 0.0373290926218
v -12.23579216003418 -128.22744750976562 -215.86787414550781
v -242.52487182617188 -145.48513793945312 -215.86787414550781
v -12.23579216003418 -153.43798828125 -215.86787414550781
v -242.52487182617188 61.77254867553711 0.0373290926218
v -242.52487182617188 -153.43798828125 0.0373290926218
v -12.23579216003418 -145.48513793945312 215.94253540039062
v 218.05328369140625 -145.48513793945312 0.0373290926218
v -12.23579216003418 -145.48513793945312 -215.86787414550781
v -242.52487182617188 -145.48513793945312 0.0373290926218
v -12.23579216003418 77.36928558349609 0.0373290926218
v -12.23579216003418 -153.43798828125 0.0373290926218
v 218.05328369140625 -128.22744750976562 -233.67436218261719
v -242.52487182617188 -128.22744750976562 -233.67436218261719
v 218.05328369140625 61.77254867553711 -17.76915740966797
v -12.23579216003418 -128.22744750976562 -233.67436218261719
v -242.52487182617188 61.77254867553711 -17.76915740966797
v -12.23579216003418 61.77254867553711 -17.76915740966797
v -242.52487182617188 -128.22744750976562 233.67436218261719
v 218.05328369140625 -128.22744750976562 233.67436218261719
v -12.23579216003418 -128.22744750976562 233.67436218261719
v 218.05328369140625 61.77254867553711 17.76915740966797
v -242.52487182617188 61.77254867553711 17.76915740966797
v -12.23579216003418 61.77254867553711 17.76915740966797
v 142.05328369140625 -78.01922607421875 -176.62059020996094
v 142.05328369140625 -13.74666500091553 -103.58489990234375
v 63.76420593261719 -78.01922607421875 -176.62059020996094
v 63.76420593261719 -13.74666500091553 -103.58489990234375
v 142.05328369140625 62.1298713684082 -176.62059020996094
v 142.05328369140625 61.32559967041016 -103.58489990234375
v 63.76420593261719 62.1298713684082 -176.62059020996094
v 63.76420593261719 61.32559967041016 -103.58489990234375
v 218.05328369140625 77.36928558349609 0.0373290926218
v -242.52487182617188 77.36928558349609 0.0373290926218
v 218.05328369140625 77.36928558349609 -17.76915740966797
v -242.52487182617188 77.36928558349609 -17.76915740966797
v -12.23579216003418 77.36928558349609 -17.76915740966797
v 218.05328369140625 77.36928558349609 17.76915740966797
v -242.52487182617188 77.36928558349609 17.76915740966797
v -12.23579216003418 77.36928558349609 17.76915740966797
v 242.52487182617188 -128.22744750976562 215.94253540039062
v 242.52487182617188 -128.22744750976562 -215.86787414550781
v 242.52487182617188 61.77254867553711 0.0373290926218
v 242.52487182617188 -128.22744750976562 -233.67436218261719
v 242.52487182617188 61.77254867553711 -17.76915740966797
v 242.52487182617188 -128.22744750976562 233.67436218261719
v 242.52487182617188 61.77254867553711 17.76915740966797
v 242.52487182617188 77.36928558349609 0.0373290926218
v 242.52487182617188 77.36928558349609 -17.76915740966797
v 242.52487182617188 77.36928558349609 17.76915740966797
v 218.05328369140625 -4.36748027801514 0.0373290926218
v 218.05328369140625 -110.30477142333984 0.0373290926218
v 218.05328369140625 -4.36748027801514 26.39748764038086
v 218.05328369140625 -110.30477142333984 26.39748764038086
v 218.05328369140625 -110.30477142333984 -29.14321327209473
v 218.05328369140625 -4.36748027801514 -29.14321327209473
v 147.37922668457031 -110.30477142333984 26.39748764038086
v 147.37922668457031 -4.36748027801514 26.39748764038086
v 147.37922668457031 -110.30477142333984 -29.14321327209473
v 147.37922668457031 -4.36748027801514 -29.14321327209473
v 218.05328369140625 -4.36748027801514 26.39748764038086
v 218.05328369140625 -4.36748027801514 -29.14321327209473
v 218.05328369140625 -4.36748027801514 0.0373290926218
v 89.05972290039062 -1.12200891971588 -153.63124084472656
v 89.05972290039062 153.43798828125 -153.63124084472656
v 101.15572357177734 -1.12200891971588 -153.63124084472656
v 101.15572357177734 153.43798828125 -153.63124084472656
v 92.79759216308594 -1.12200891971588 -165.13522338867188
v 92.79759216308594 153.43798828125 -165.13522338867188
v 79.27384948730469 -1.12200891971588 -160.7410888671875
v 79.27384948730469 153.43798828125 -160.7410888671875
v 79.27384948730469 -1.12200891971588 -146.52139282226562
v 79.27384948730469 153.43798828125 -146.52139282226562
v 92.79759216308594 -1.12200891971588 -142.12725830078125
v 92.79759216308594 153.43798828125 -142.12725830078125
v 118.80475616455078 18.65799140930176 -127.14626312255859
v 118.80475616455078 133.65798950195312 -127.14626312255859
v 127.80475616455078 18.65799140930176 -127.14626312255859
v 127.80475616455078 133.65798950195312 -127.14626312255859
v 121.58591461181641 18.65799140930176 -135.70576477050781
v 121.58591461181641 133.65798950195312 -135.70576477050781
v 111.52360534667969 18.65799140930176 -132.43632507324219
v 111.52360534667969 133.65798950195312 -132.43632507324219
v 111.52360534667969 18.65799140930176 -121.85619354248047
v 111.52360534667969 133.65798950195312 -121.85619354248047
v 121.58591461181641 18.65799140930176 -118.58675384521484
v 121.58591461181641 133.65798950195312 -118.58675384521484
# 101 vertices

vn 0 0 1
vn 1 0 0
vn 0 0 0
vn 0 0 -1
vn -1 0 0
vn 0 0.75070762634277 0.66063457727432
vn 0 0.75070762634277 -0.66063457727432
vn 0.00000000744634 0.75070762634277 -0.66063463687897
vn 0 0.99993938207626 0.01101136859506
vn 0 0.75070762634277 0.66063463687897
vn 0 -1 0
vn 0 1 0
vn 0.00000001116951 0.75070762634277 -0.66063463687897
vn 0 0.75070762634277 -0.66063463687897
vn 0 -0.75070762634277 0.66063463687897
vn 0 0.75070762634277 -0.66063457727432
vn 0 -0.75070762634277 -0.66063457727432
vn 0 0.75070762634277 0.66063457727432
vn 0.80901706218719 0 -0.58778518438339
vn -0.30901724100113 0 -0.95105642080307
vn -0.30901724100113 0 0.95105642080307
vn 0.80901706218719 0 0.58778518438339
vn 0.80901700258255 0 -0.58778524398804
vn -0.30901676416397 0 -0.951056599617
vn -0.30901676416397 0 0.951056599617
vn 0.80901700258255 0 0.58778524398804
# 26 normals

vt 0.41087514162064 0.10752475261688 0
vt 0.41087514162064 0.11417257785797 0
vt 0.60337495803833 0.11417257785797 0
vt 0.60337495803833 0.10752475261688 0
vt 0.41087514162064 0.12859833240509 0
vt 0.60337495803833 0.12859833240509 0
vt 0.79587477445602 0.12859833240509 0
vt 0.79587477445602 0.11417257785797 0
vt 0.79587477445602 0.10752475261688 0
vt 0.0086251841858 0.02536690235138 0
vt 0.0086251841858 0.03201472759247 0
vt 0.1891014277935 0.03201472759247 0
vt 0.1891014277935 0.02536690235138 0
vt 0.1891014277935 0.06142210960388 0
vt 0.16706684231758 0.06142210960388 0
vt 0.1891014277935 0.20526242256165 0
vt 0.1891014277935 0.14997565746307 0
vt 0.16706684231758 0.14997565746307 0
vt 0.19723215699196 0.1684045791626 0
vt 0.0086251841858 0.04644048213959 0
vt 0.21349360048771 0.14997565746307 0
vt 0.19801703095436 0.16806650161743 0
vt 0.36957767605782 0.04644048213959 0
vt 0.36957767605782 0.03201472759247 0
vt 0.21349360048771 0.06142210960388 0
vt 0.36957767605782 0.02536690235138 0
vt 0.41087514162064 0.06920075416565 0
vt 0.41087514162064 0.07584857940674 0
vt 0.60337495803833 0.07584857940674 0
vt 0.60337495803833 0.06920075416565 0
vt 0.41087514162064 0.09027433395386 0
vt 0.60337495803833 0.09027433395386 0
vt 0.79587477445602 0.09027433395386 0
vt 0.79587477445602 0.07584857940674 0
vt 0.79587477445602 0.06920075416565 0
vt 0.42575967311859 0.39053237438202 0
vt 0.42575967311859 0.39718019962311 0
vt 0.6062359213829 0.39718019962311 0
vt 0.6062359213829 0.39053237438202 0
vt 0.42575967311859 0.41160595417023 0
vt 0.6062359213829 0.57042789459229 0
vt 0.78671216964722 0.41160595417023 0
vt 0.78671216964722 0.39718019962311 0
vt 0.78671216964722 0.39053237438202 0
vt 0.43133106827736 0.81089854240417 0
vt 0.43133106827736 0.99137479066849 0
vt 0.62383085489273 0.99137479066849 0
vt 0.62383085489273 0.81089854240417 0
vt 0.41087514162064 0.19280576705933 0
vt 0.41087514162064 0.37328195571899 0
vt 0.60337495803833 0.37328195571899 0
vt 0.60337495803833 0.19280576705933 0
vt 0.85403698682785 0.99070250988007 0
vt 0.85403698682785 0.99137479066849 0
vt 0.91947919130325 0.99137479066849 0
vt 0.91947919130325 0.99070250988007 0
vt 0.81633067131042 0.99137479066849 0
vt 0.81633067131042 0.81089854240417 0
vt 0.0086251841858 0.22251284122467 0
vt 0.0086251841858 0.40298902988434 0
vt 0.20112498104572 0.40298902988434 0
vt 0.20112498104572 0.22251284122467 0
vt 0.0086251841858 0.58346527814865 0
vt 0.20112498104572 0.58346527814865 0
vt 0.39362478256226 0.58346527814865 0
vt 0.39362478256226 0.40298902988434 0
vt 0.39362478256226 0.22251284122467 0
vt 0.59135138988495 0.57042789459229 0
vt 0.41087514162064 0.41160595417023 0
vt 0.0086251841858 0.60071569681168 0
vt 0.0086251841858 0.61560022830963 0
vt 0.20112498104572 0.61560022830963 0
vt 0.20112498104572 0.60071569681168 0
vt 0.60337495803833 0.1755553483963 0
vt 0.60337495803833 0.16067087650299 0
vt 0.41087514162064 0.16067087650299 0
vt 0.41087514162064 0.1755553483963 0
vt 0.39362478256226 0.61560022830963 0
vt 0.39362478256226 0.60071569681168 0
vt 0.82199025154114 0.62178885936737 0
vt 0.80710572004318 0.62178885936737 0
vt 0.62662947177887 0.78061079978943 0
vt 0.64151400327682 0.78061079978943 0
vt 0.79587477445602 0.1755553483963 0
vt 0.79587477445602 0.16067087650299 0
vt 0.80153429508209 0.41160595417023 0
vt 0.62105804681778 0.57042789459229 0
vt 0.41087514162064 0.14584875106812 0
vt 0.60337495803833 0.14584875106812 0
vt 0.20112498104572 0.99137479066849 0
vt 0.20112498104572 0.97655266523361 0
vt 0.0086251841858 0.97655266523361 0
vt 0.0086251841858 0.99137479066849 0
vt 0.79587477445602 0.14584875106812 0
vt 0.61180734634399 0.78061079978943 0
vt 0.44615319371223 0.62178885936737 0
vt 0.43133106827736 0.62178885936737 0
vt 0.39362478256226 0.99137479066849 0
vt 0.39362478256226 0.97655266523361 0
vt 0.66690373420715 0.26453959941864 0
vt 0.66690373420715 0.32559049129486 0
vt 0.79587477445602 0.37328195571899 0
vt 0.7323459982872 0.32559049129486 0
vt 0.79587477445602 0.19280576705933 0
vt 0.7323459982872 0.26453959941864 0
vt 0.90468281507492 0.65857422351837 0
vt 0.90468281507492 0.59582090377808 0
vt 0.8436319231987 0.54209518432617 0
vt 0.8436319231987 0.65924650430679 0
vt 0.90468281507492 0.79364824295044 0
vt 0.90468281507492 0.67649686336517 0
vt 0.83924061059952 0.67649686336517 0
vt 0.83924061059952 0.79364824295044 0
vt 0.89463192224503 0.37328195571899 0
vt 0.89463192224503 0.25613069534302 0
vt 0.8335810303688 0.30985641479492 0
vt 0.8335810303688 0.37260973453522 0
vt 0.91947919130325 0.92794924974442 0
vt 0.85403698682785 0.92794924974442 0
vt 0.6062359213829 0.58346527814865 0
vt 0.59135138988495 0.58346527814865 0
vt 0.79587477445602 0.05195033550262 0
vt 0.79587477445602 0.0389130115509 0
vt 0.60337495803833 0.0389130115509 0
vt 0.60337495803833 0.05195033550262 0
vt 0.64151400327682 0.79364824295044 0
vt 0.62662947177887 0.79364824295044 0
vt 0.41087514162064 0.0389130115509 0
vt 0.41087514162064 0.05195033550262 0
vt 0.62105804681778 0.58346527814865 0
vt 0.58291906118393 0.02166259288788 0
vt 0.58291906118393 0.00862526893616 0
vt 0.39041924476624 0.00862526893616 0
vt 0.39041924476624 0.02166259288788 0
vt 0.61180734634399 0.79364824295044 0
vt 0.77541881799698 0.02166259288788 0
vt 0.77541881799698 0.00862526893616 0
vt 0.41408070921898 0.60071569681168 0
vt 0.41408070921898 0.61560022830963 0
vt 0.39362478256226 0.7960764169693 0
vt 0.41408070921898 0.7960764169693 0
vt 0.81633067131042 0.19280576705933 0
vt 0.81633067131042 0.37328195571899 0
vt 0.41408070921898 0.97655266523361 0
vt 0.41408070921898 0.99137479066849 0
vt 0.83678662776947 0.81089854240417 0
vt 0.83678662776947 0.99137479066849 0
vt 0.39041924476624 0.05195033550262 0
vt 0.39041924476624 0.0389130115509 0
vt 0.81633067131042 0.16067087650299 0
vt 0.81633067131042 0.1755553483963 0
vt 0.79587477445602 0.00862526893616 0
vt 0.79587477445602 0.02166259288788 0
vt 0.81633067131042 0.14584875106812 0
vt 0.89463192224503 0.1503267288208 0
vt 0.83555513620377 0.1503267288208 0
vt 0.83555513620377 0.23888027667999 0
vt 0.89463192224503 0.23888027667999 0
vt 0.83555513620377 0.47908592224121 0
vt 0.89463192224503 0.47908592224121 0
vt 0.89463192224503 0.39053237438202 0
vt 0.83555513620377 0.39053237438202 0
vt 0.90046370029449 0.91069889068604 0
vt 0.90046370029449 0.82214534282684 0
vt 0.85403698682785 0.82214534282684 0
vt 0.85403698682785 0.91069889068604 0
vt 0.8131251335144 0.12859833240509 0
vt 0.87220191955566 0.12859833240509 0
vt 0.87220191955566 0.10656380653381 0
vt 0.8131251335144 0.0821715593338 0
vt 0.87220191955566 0.0821715593338 0
vt 0.84266352653503 0.11148297786713 0
vt 0.94852912425995 0.12859833240509 0
vt 0.94852912425995 0.10420620441437 0
vt 0.88945227861404 0.12859833240509 0
vt 0.9296727180481 0.12046766281128 0
vt 0.88945227861404 0.0821715593338 0
vt 0.94852912425995 0.0821715593338 0
vt 0.85181200504303 0.5152285695076 0
vt 0.86192309856415 0.5152285695076 0
vt 0.85493648052216 0.50561231374741 0
vt 0.85622388124466 0.51202315092087 0
vt 0.92925649881363 0.66445070505142 0
vt 0.92925649881363 0.79364824295044 0
vt 0.93624305725098 0.79364824295044 0
vt 0.93624305725098 0.66445070505142 0
vt 0.94852912425995 0.15546488761902 0
vt 0.93841797113419 0.15546488761902 0
vt 0.94154250621796 0.16508114337921 0
vt 0.94299703836441 0.15783441066742 0
vt 0.8436319231987 0.50928539037704 0
vt 0.85639107227325 0.51118725538254 0
vt 0.91188234090805 0.39053237438202 0
vt 0.91188234090805 0.51972979307175 0
vt 0.91555535793304 0.51972979307175 0
vt 0.91555535793304 0.39053237438202 0
vt 0.9302379488945 0.16140806674957 0
vt 0.94316422939301 0.15783441066742 0
vt 0.8436319231987 0.52117174863815 0
vt 0.8565582036972 0.51118725538254 0
vt 0.92744171619415 0.51972979307175 0
vt 0.92744171619415 0.39053237438202 0
vt 0.9302379488945 0.14952182769775 0
vt 0.9433314204216 0.15783441066742 0
vt 0.85493648052216 0.52484482526779 0
vt 0.8567253947258 0.51118725538254 0
vt 0.93111479282379 0.51972979307175 0
vt 0.93111479282379 0.39053237438202 0
vt 0.94154250621796 0.14584875106812 0
vt 0.9434986114502 0.15783441066742 0
vt 0.85689258575439 0.51118725538254 0
vt 0.91188234090805 0.24408447742462 0
vt 0.91188234090805 0.37328195571899 0
vt 0.9188688993454 0.37328195571899 0
vt 0.9188688993454 0.24408447742462 0
vt 0.94366574287415 0.15783441066742 0
vt 0.88525980710983 0.51276725530624 0
vt 0.89278298616409 0.51276725530624 0
vt 0.88758462667465 0.50561231374741 0
vt 0.88854247331619 0.51038229465485 0
vt 0.38682806491852 0.10913336277008 0
vt 0.38682806491852 0.20526242256165 0
vt 0.39202642440796 0.20526242256165 0
vt 0.39202642440796 0.10913336277008 0
vt 0.87220191955566 0.05776631832123 0
vt 0.86467880010605 0.05776631832123 0
vt 0.86700356006622 0.06492125988007 0
vt 0.86812859773636 0.05931532382965 0
vt 0.87917345762253 0.50834530591965 0
vt 0.88870966434479 0.50954639911652 0
vt 0.92193323373795 0.81089854240417 0
vt 0.92193323373795 0.90702766180038 0
vt 0.92466616630554 0.90702766180038 0
vt 0.92466616630554 0.81089854240417 0
vt 0.85859245061874 0.06218826770782 0
vt 0.86829578876495 0.05931532382965 0
vt 0.87917345762253 0.51718926429749 0
vt 0.88887685537338 0.50954639911652 0
vt 0.93351012468338 0.90702766180038 0
vt 0.93351012468338 0.81089854240417 0
vt 0.85859245061874 0.05334424972534 0
vt 0.86846297979355 0.05931532382965 0
vt 0.88758462667465 0.51992219686508 0
vt 0.88904398679733 0.50954639911652 0
vt 0.93624305725098 0.90702766180038 0
vt 0.93624305725098 0.81089854240417 0
vt 0.86700356006622 0.05061137676239 0
vt 0.86863017082214 0.05931532382965 0
vt 0.88921117782593 0.50954639911652 0
vt 0.93104469776154 0.55107128620148 0
vt 0.93104469776154 0.64720034599304 0
vt 0.93624305725098 0.64720034599304 0
vt 0.93624305725098 0.55107128620148 0
vt 0.86879730224609 0.05931532382965 0
# 254 texture coordinates

o House_10
usemtl default
f 12/4/1 21/3/1 9/2/1 1/1/1
f 21/3/1 10/6/1 2/5/1 9/2/1
f 11/8/1 4/7/1 10/6/1 21/3/1
f 3/9/1 11/8/1 21/3/1 12/4/1
f 15/13/2 22/12/2 11/11/2 3/10/2
f 68/15/2 11/11/2 22/12/2 66/14/2
f 67/18/2 65/17/2 13/16/2
f 67/18/2 13/16/2 4/20/2 11/11/2
f 68/15/2 67/18/2 11/11/2
f 13/16/2 65/17/2 70/21/2
f 22/12/2 14/24/2 6/23/2
f 6/23/2 69/25/2 66/14/2 22/12/2
f 6/23/2 13/16/2 70/21/2
f 6/23/2 70/21/2 69/25/2
f 5/26/2 14/24/2 22/12/2 15/13/2
f 18/30/4 23/29/4 14/28/4 5/27/4
f 23/29/4 16/32/4 6/31/4 14/28/4
f 17/34/4 8/33/4 16/32/4 23/29/4
f 7/35/4 17/34/4 23/29/4 18/30/4
f 20/39/5 24/38/5 17/37/5 7/36/5
f 24/38/5 19/41/5 8/40/5 17/37/5
f 9/43/5 2/42/5 19/41/5 24/38/5
f 1/44/5 9/43/5 24/38/5 20/39/5
f 35/48/6 38/47/6 37/46/6 33/45/6
f 32/52/8 30/51/8 28/50/7 31/49/7
f 44/56/9 43/55/9 45/54/9 46/53/9
f 34/58/10 36/57/10 38/47/6 35/48/6
f 18/62/11 26/61/11 20/60/11 7/59/11
f 26/61/11 12/64/11 1/63/11 20/60/11
f 15/66/11 3/65/11 12/64/11 26/61/11
f 5/67/11 15/66/11 26/61/11 18/62/11
f 28/69/5 8/40/5 19/41/5 31/68/5
f 30/73/11 16/72/11 8/71/11 28/70/11
f 50/77/12 48/76/12 25/75/12 51/74/12
f 27/79/11 6/78/11 16/72/11 30/73/11
f 59/83/2 57/82/2 56/81/2 58/80/2
f 51/74/12 25/75/12 47/85/12 49/84/12
f 37/87/5 19/41/5 2/42/5 33/86/5
f 54/89/12 25/75/12 48/76/12 53/88/12
f 33/93/11 2/92/11 10/91/11 35/90/11
f 52/94/12 47/85/12 25/75/12 54/89/12
f 60/97/2 55/96/2 57/82/2 61/95/2
f 35/90/11 10/91/11 4/99/11 34/98/11
f 41/101/13 30/51/8 32/52/8 42/100/13
f 39/103/14 27/102/14 30/51/8 41/101/13
f 40/105/14 29/104/14 27/102/14 39/103/14
f 42/100/13 32/52/8 29/104/14 40/105/14
f 45/109/5 41/108/5 42/107/5 46/106/5
f 43/113/4 39/112/4 41/111/4 45/110/4
f 44/117/2 40/116/2 39/115/2 43/114/2
f 46/53/1 42/119/1 40/118/1 44/56/1
f 50/121/5 31/68/5 19/41/5 48/120/5
f 51/125/4 32/124/4 31/123/4 50/122/4
f 62/127/2 57/82/2 59/83/2 63/126/2
f 49/129/4 29/128/4 32/124/4 51/125/4
f 48/120/5 19/41/5 37/87/5 53/130/5
f 53/134/1 37/133/1 38/132/1 54/131/1
f 64/135/2 61/95/2 57/82/2 62/127/2
f 54/131/1 38/132/1 36/137/1 52/136/1
f 56/139/11 6/78/11 27/79/11 58/138/11
f 57/141/15 13/140/15 6/78/15 56/139/15
f 58/143/16 27/102/14 29/104/14 59/142/16
f 55/144/17 4/99/17 13/140/17 57/141/17
f 60/145/11 34/98/11 4/99/11 55/144/11
f 61/147/18 36/57/10 34/58/10 60/146/18
f 59/149/4 29/128/4 49/129/4 63/148/4
f 63/151/12 49/84/12 47/85/12 62/150/12
f 64/153/1 52/136/1 36/137/1 61/152/1
f 62/150/12 47/85/12 52/94/12 64/154/12
f 72/158/4 75/157/4 68/156/4 71/155/4
f 73/162/1 69/161/1 76/160/1 74/159/1
f 72/166/2 71/165/2 73/164/2 74/163/2
f 74/170/11 77/169/11 75/168/11 72/167/11
f 77/169/11 74/170/11 76/171/11
f 73/175/12 66/174/12 69/173/12
f 68/178/12 66/174/12 73/175/12 71/177/12
f 82/181/11 80/180/11 78/179/11
f 82/186/19 83/185/19 81/184/19 80/183/19
f 83/189/12 79/188/12 81/187/12
f 84/191/11 82/181/11 78/179/11
f 84/196/20 85/195/20 83/194/20 82/193/20
f 85/197/12 79/188/12 83/189/12
f 86/199/11 84/191/11 78/179/11
f 86/202/5 87/201/5 85/195/5 84/196/5
f 87/203/12 79/188/12 85/197/12
f 88/205/11 86/199/11 78/179/11
f 88/208/21 89/207/21 87/201/21 86/202/21
f 89/209/12 79/188/12 87/203/12
f 80/180/11 88/205/11 78/179/11
f 80/215/22 81/214/22 89/213/22 88/212/22
f 81/187/12 79/188/12 89/209/12
f 94/219/11 92/218/11 90/217/11
f 94/224/23 95/223/23 93/222/23 92/221/23
f 95/227/12 91/226/12 93/225/12
f 96/229/11 94/219/11 90/217/11
f 96/234/24 97/233/24 95/232/24 94/231/24
f 97/235/12 91/226/12 95/227/12
f 98/237/11 96/229/11 90/217/11
f 98/240/5 99/239/5 97/233/5 96/234/5
f 99/241/12 91/226/12 97/235/12
f 100/243/11 98/237/11 90/217/11
f 100/246/25 101/245/25 99/239/25 98/240/25
f 101/247/12 91/226/12 99/241/12
f 92/218/11 100/243/11 90/217/11
f 92/253/26 93/252/26 101/251/26 100/250/26
f 93/225/12 91/226/12 101/247/12

