%YAML 1.1
%TAG !u! tag:unity3d.com,2011:
--- !u!74 &7400000
AnimationClip:
  m_ObjectHideFlags: 0
  m_CorrespondingSourceObject: {fileID: 0}
  m_PrefabInstance: {fileID: 0}
  m_PrefabAsset: {fileID: 0}
  m_Name: Butcher_Slaughtercycle
  serializedVersion: 6
  m_Legacy: 0
  m_Compressed: 0
  m_UseHighQualityCurve: 1
  m_RotationCurves: []
  m_CompressedRotationCurves: []
  m_EulerCurves: []
  m_PositionCurves: []
  m_ScaleCurves: []
  m_FloatCurves: []
  m_PPtrCurves:
  - curve:
    - time: 0
      value: {fileID: 21300000, guid: a2af522f4427d41c785bf2063555bdeb, type: 3}
    - time: 0.083333336
      value: {fileID: 21300000, guid: ac3704e1786b741fc9ad05243d992771, type: 3}
    - time: 0.16666667
      value: {fileID: 21300000, guid: 98255d72c96a64ee08343af17b0be81e, type: 3}
    - time: 0.25
      value: {fileID: 21300000, guid: ce9885408f6b441fd8ab076ac0cfd649, type: 3}
    - time: 0.33333334
      value: {fileID: 21300000, guid: be0abbf4762954457a075883faf4e641, type: 3}
    - time: 0.41666666
      value: {fileID: 21300000, guid: 60868b43b6fa4413abdbfdc6b5d56302, type: 3}
    - time: 0.5
      value: {fileID: 21300000, guid: d4c2535d08bcb4fc1a39aea4a2552ed5, type: 3}
    - time: 0.5833333
      value: {fileID: 21300000, guid: 267641a68b6de4e888d3815a8c55a37c, type: 3}
    - time: 0.6666667
      value: {fileID: 21300000, guid: 5b15a4136591e46ac9f752ac75946f33, type: 3}
    - time: 0.75
      value: {fileID: 21300000, guid: d61a687147ef045ecb7170ddf3af65fd, type: 3}
    - time: 0.8333333
      value: {fileID: 21300000, guid: 079592863cbc043e1af0e246fbc8a234, type: 3}
    - time: 0.9166667
      value: {fileID: 21300000, guid: 84ddb65b03c20445babec1961c1221c0, type: 3}
    - time: 1
      value: {fileID: 21300000, guid: 38443ef6b627f465386704a42eb2de0b, type: 3}
    - time: 1.0833334
      value: {fileID: 21300000, guid: a75b4364c0acb443db54cfa3cfc6d6e2, type: 3}
    - time: 1.1666666
      value: {fileID: 21300000, guid: 596e1ba5825be43d98366550f9849281, type: 3}
    - time: 1.25
      value: {fileID: 21300000, guid: 41bc16161e9484b76adb2fb856c73052, type: 3}
    - time: 1.3333334
      value: {fileID: 21300000, guid: d917f9b3defbb42d2b7da2a9ef766bee, type: 3}
    - time: 1.4166666
      value: {fileID: 21300000, guid: f03fe6a49fe2849208b97e4189da3a7d, type: 3}
    - time: 1.5
      value: {fileID: 21300000, guid: b0343b469de2e4792aa1dc459955ab1c, type: 3}
    - time: 1.5833334
      value: {fileID: 21300000, guid: 785ce0f6fe94f457ea958e23cfb89e03, type: 3}
    - time: 1.6666666
      value: {fileID: 21300000, guid: e32f793f6bb69469dab5061712a03605, type: 3}
    - time: 1.75
      value: {fileID: 21300000, guid: 626a5c7160072475f85c845bfd6e7056, type: 3}
    - time: 1.8333334
      value: {fileID: 21300000, guid: 40f928687fd6e42edaa118c92adf1bef, type: 3}
    - time: 1.9166666
      value: {fileID: 21300000, guid: 422693eb2ef9648e595ec4aadce74665, type: 3}
    - time: 2
      value: {fileID: 21300000, guid: 182cd10b8e6c44a65a7870d2b1fe3d4c, type: 3}
    - time: 2.0833333
      value: {fileID: 21300000, guid: f33a1e00d94924adf9a7a896b1b4b6dd, type: 3}
    - time: 2.1666667
      value: {fileID: 21300000, guid: 6fca7b913169046ef8e52160574877d2, type: 3}
    - time: 2.25
      value: {fileID: 21300000, guid: d19e11958dd094114837679d4a79bd8b, type: 3}
    - time: 2.3333333
      value: {fileID: 21300000, guid: 80dc9a4edf3af4c2692a7d44ce9b861c, type: 3}
    - time: 2.4166667
      value: {fileID: 21300000, guid: 573d72b28d01147e28543c6df513bc67, type: 3}
    - time: 2.5
      value: {fileID: 21300000, guid: d7072f4763f4b43d4af80c8991c34dc5, type: 3}
    - time: 2.5833333
      value: {fileID: 21300000, guid: 912c87c460982429b9d911de82f8e91f, type: 3}
    - time: 2.6666667
      value: {fileID: 21300000, guid: 0ef0cb9fdf01f463a84e4ad0a2c7050d, type: 3}
    - time: 2.75
      value: {fileID: 21300000, guid: 63c47756d7d024598ae455927c018e80, type: 3}
    - time: 2.8333333
      value: {fileID: 21300000, guid: 7bbb82be9f899433aa543167408bba96, type: 3}
    - time: 2.9166667
      value: {fileID: 21300000, guid: 85e7cc6e7f7514e65bfb4e5aed610428, type: 3}
    - time: 3
      value: {fileID: 21300000, guid: 76b893bc748bf48ee9c800998a3181ce, type: 3}
    - time: 3.0833333
      value: {fileID: 21300000, guid: 89fc60b3630974050bc93b9b5c69add8, type: 3}
    - time: 3.1666667
      value: {fileID: 21300000, guid: d882b6c7191f748ffb732bb65cc21cc3, type: 3}
    - time: 3.25
      value: {fileID: 21300000, guid: 52eb9b6b737da4fb1b41d46d9906321e, type: 3}
    attribute: m_Sprite
    path: 
    classID: 212
    script: {fileID: 0}
  m_SampleRate: 12
  m_WrapMode: 0
  m_Bounds:
    m_Center: {x: 0, y: 0, z: 0}
    m_Extent: {x: 0, y: 0, z: 0}
  m_ClipBindingConstant:
    genericBindings:
    - serializedVersion: 2
      path: 0
      attribute: 0
      script: {fileID: 0}
      typeID: 212
      customType: 23
      isPPtrCurve: 1
    pptrCurveMapping:
    - {fileID: 21300000, guid: a2af522f4427d41c785bf2063555bdeb, type: 3}
    - {fileID: 21300000, guid: ac3704e1786b741fc9ad05243d992771, type: 3}
    - {fileID: 21300000, guid: 98255d72c96a64ee08343af17b0be81e, type: 3}
    - {fileID: 21300000, guid: ce9885408f6b441fd8ab076ac0cfd649, type: 3}
    - {fileID: 21300000, guid: be0abbf4762954457a075883faf4e641, type: 3}
    - {fileID: 21300000, guid: 60868b43b6fa4413abdbfdc6b5d56302, type: 3}
    - {fileID: 21300000, guid: d4c2535d08bcb4fc1a39aea4a2552ed5, type: 3}
    - {fileID: 21300000, guid: 267641a68b6de4e888d3815a8c55a37c, type: 3}
    - {fileID: 21300000, guid: 5b15a4136591e46ac9f752ac75946f33, type: 3}
    - {fileID: 21300000, guid: d61a687147ef045ecb7170ddf3af65fd, type: 3}
    - {fileID: 21300000, guid: 079592863cbc043e1af0e246fbc8a234, type: 3}
    - {fileID: 21300000, guid: 84ddb65b03c20445babec1961c1221c0, type: 3}
    - {fileID: 21300000, guid: 38443ef6b627f465386704a42eb2de0b, type: 3}
    - {fileID: 21300000, guid: a75b4364c0acb443db54cfa3cfc6d6e2, type: 3}
    - {fileID: 21300000, guid: 596e1ba5825be43d98366550f9849281, type: 3}
    - {fileID: 21300000, guid: 41bc16161e9484b76adb2fb856c73052, type: 3}
    - {fileID: 21300000, guid: d917f9b3defbb42d2b7da2a9ef766bee, type: 3}
    - {fileID: 21300000, guid: f03fe6a49fe2849208b97e4189da3a7d, type: 3}
    - {fileID: 21300000, guid: b0343b469de2e4792aa1dc459955ab1c, type: 3}
    - {fileID: 21300000, guid: 785ce0f6fe94f457ea958e23cfb89e03, type: 3}
    - {fileID: 21300000, guid: e32f793f6bb69469dab5061712a03605, type: 3}
    - {fileID: 21300000, guid: 626a5c7160072475f85c845bfd6e7056, type: 3}
    - {fileID: 21300000, guid: 40f928687fd6e42edaa118c92adf1bef, type: 3}
    - {fileID: 21300000, guid: 422693eb2ef9648e595ec4aadce74665, type: 3}
    - {fileID: 21300000, guid: 182cd10b8e6c44a65a7870d2b1fe3d4c, type: 3}
    - {fileID: 21300000, guid: f33a1e00d94924adf9a7a896b1b4b6dd, type: 3}
    - {fileID: 21300000, guid: 6fca7b913169046ef8e52160574877d2, type: 3}
    - {fileID: 21300000, guid: d19e11958dd094114837679d4a79bd8b, type: 3}
    - {fileID: 21300000, guid: 80dc9a4edf3af4c2692a7d44ce9b861c, type: 3}
    - {fileID: 21300000, guid: 573d72b28d01147e28543c6df513bc67, type: 3}
    - {fileID: 21300000, guid: d7072f4763f4b43d4af80c8991c34dc5, type: 3}
    - {fileID: 21300000, guid: 912c87c460982429b9d911de82f8e91f, type: 3}
    - {fileID: 21300000, guid: 0ef0cb9fdf01f463a84e4ad0a2c7050d, type: 3}
    - {fileID: 21300000, guid: 63c47756d7d024598ae455927c018e80, type: 3}
    - {fileID: 21300000, guid: 7bbb82be9f899433aa543167408bba96, type: 3}
    - {fileID: 21300000, guid: 85e7cc6e7f7514e65bfb4e5aed610428, type: 3}
    - {fileID: 21300000, guid: 76b893bc748bf48ee9c800998a3181ce, type: 3}
    - {fileID: 21300000, guid: 89fc60b3630974050bc93b9b5c69add8, type: 3}
    - {fileID: 21300000, guid: d882b6c7191f748ffb732bb65cc21cc3, type: 3}
    - {fileID: 21300000, guid: 52eb9b6b737da4fb1b41d46d9906321e, type: 3}
  m_AnimationClipSettings:
    serializedVersion: 2
    m_AdditiveReferencePoseClip: {fileID: 0}
    m_AdditiveReferencePoseTime: 0
    m_StartTime: 0
    m_StopTime: 3.3333333
    m_OrientationOffsetY: 0
    m_Level: 0
    m_CycleOffset: 0
    m_HasAdditiveReferencePose: 0
    m_LoopTime: 1
    m_LoopBlend: 0
    m_LoopBlendOrientation: 0
    m_LoopBlendPositionY: 0
    m_LoopBlendPositionXZ: 0
    m_KeepOriginalOrientation: 0
    m_KeepOriginalPositionY: 1
    m_KeepOriginalPositionXZ: 0
    m_HeightFromFeet: 0
    m_Mirror: 0
  m_EditorCurves: []
  m_EulerEditorCurves: []
  m_HasGenericRootTransform: 0
  m_HasMotionFloatCurves: 0
  m_Events: []
